Program c:\documentos\projecto\ltserpfox\funcoes\robot\robot.prg has the following errors:
    Proc./Func. MAPAROBOT - Undefined
    Proc./Func. ROBOT_SERVICO - Undefined
    Unknown UF_GERAIS_ACTGRELHA - Undefined
    Unknown UF_PERGUNTALT_CHAMA - Undefined
    Unknown FECHA - Undefined
    Unknown ASTR - Undefined
    Unknown UF_ATENDIMENTO_EVENTOFI - Undefined
    Unknown UF_ATENDIMENTO_ADICIONALINHAFI - Undefined
    Unknown UF_ATENDIMENTO_ACTREF - Undefined
    Unknown UF_GERAIS_GETPARAMETER - Undefined

Form c:\documentos\projecto\ltserpfox\funcoes\robot\maparobot.scx has the following errors:
    Unknown UF_GERAIS_ACTGRELHA - Undefined
    Unknown UF_GERAIS_ATALHOS - Undefined
    Unknown UF_GERAIS_FORMBACKCOLOR - Undefined
    Unknown UF_GERAIS_SHAPEBACKCOLOR - Undefined
    Unknown UF_GERAIS_GETROWHEIGHT - Undefined
    Unknown UF_GERAIS_GETHEADERHEIGHT - Undefined
    Unknown UF_GERAIS_ORDENAGRELHA - Undefined

Program c:\documentos\projecto\ltserpfox\funcoes\robot\maparobot.prg has the following errors:
    Unknown UF_GERAIS_ACTGRELHA - Undefined
    Unknown UF_PERGUNTALT_CHAMA - Undefined
    Unknown ASTR - Undefined
    Unknown UF_GERAIS_GETPARAMETER - Undefined
    Unknown UF_GERAIS_CHAMAREPORT - Undefined

Visual Class Library c:\documentos\projecto\ltserpfox\funcoes\gerais\class_tecladovirtual.vcx has the following errors:
    Unknown UF_GERAIS_CLICKEFFECT - Undefined
    Unknown UF_PAGAMENTO_RESETVALORESMODOPAG - Undefined
    Unknown UF_ALTERAMEIOSPAG_RESETVALORESMODOPAG - Undefined

Visual Class Library c:\documentos\projecto\ltserpfox\funcoes\gerais\filtros.vcx has the following errors:
    Unknown UF_GERAIS_ACTGRELHA - Undefined
    Unknown FECHA - Undefined
    Unknown UF_GERAIS_GETROWHEIGHT - Undefined
    Unknown UF_GERAIS_CLICKEFFECT - Undefined
    Unknown UF_ANALISES_ALTERAGRUPO - Undefined
    Unknown UF_VALORESCOMBO_CHAMA - Undefined
    Unknown UF_FAMILIAS_CHAMA - Undefined
    Unknown UF_GERAIS_FILLDATACOMBOBOX - Undefined
    Unknown UF_FILTRADCI_CHAMA - Undefined
    Unknown UF_GERAIS_STAMP - Undefined
    Unknown UF_GERAIS_INSERT_TEMPFILTERS - Undefined

Visual Class Library c:\documentos\projecto\ltserpfox\funcoes\gerais\menu.vcx has the following errors:
    Unknown ASTR - Undefined
    Unknown UF_GERAIS_GETPARAMETER - Undefined
    Unknown UF_STARTUP_RECOVERAPPS - Undefined
    Proc./Func. UF_STARTUP_STARTTERMINAL - Undefined
    Unknown UF_GERAIS_REDRAWOPCOES - Undefined
    Unknown GETUMVALOR - Undefined
    Unknown UF_GERAIS_KEYSTROKES - Undefined
    Visual Class Library DADOSUSER - Undefined

Program c:\documentos\projecto\ltserpfox\funcoes\robot\robot_servico.prg has the following errors:
    Unknown UF_GERAIS_ACTGRELHA - Undefined
    Unknown UF_PERGUNTALT_CHAMA - Undefined
    Unknown FECHA - Undefined
    Unknown ASTR - Undefined
    Unknown UF_GERAIS_GETPARAMETER - Undefined
    Unknown UF_GERAIS_STAMP - Undefined
    Unknown REGUA - Undefined
    Unknown UF_GERAIS_GETPARAMETER_SITE - Undefined
    Unknown UF_GERAIS_SETIMPRESSORAPOS - Undefined
    Unknown UF_GERAIS_SEPARADORPOS - Undefined
    Unknown UF_GERAIS_FEEDCUTPOS - Undefined

