Program c:\documentos\projecto\ltserpfox\funcoes\documentos\bonusprod.prg has the following errors:
    Unknown UF_GERAIS_CHAMAREPORT - Undefined
    Unknown FECHA - Undefined

Program c:\documentos\projecto\ltserpfox\funcoes\documentos\condicoescomerciais.prg has the following errors:
    Unknown UF_GERAIS_CHAMAREPORT - Undefined
    Unknown FECHA - Undefined
    Unknown UF_PERGUNTALT_CHAMA - Undefined
    Unknown UF_GERAIS_ACTGRELHA - Undefined
    Unknown REGUA - Undefined
    Unknown UF_GERAIS_STAMP - Undefined
    Unknown UF_TECLADONUMERICO_CHAMA - Undefined
    Unknown UF_GERAIS_GRAVAULTREGISTO - Undefined

Program c:\documentos\projecto\ltserpfox\funcoes\documentos\conffacturas.prg has the following errors:
    Unknown FECHA - Undefined
    Unknown UF_PERGUNTALT_CHAMA - Undefined
    Unknown UF_GERAIS_ACTGRELHA - Undefined
    Unknown REGUA - Undefined
    Unknown UF_GERAIS_STAMP - Undefined
    Unknown UF_GERAIS_GRAVAULTREGISTO - Undefined
    Unknown UF_GERAIS_VALIDAPERMUSER - Undefined
    Unknown UF_GERAIS_GETPARAMETER - Undefined
    Unknown UF_GERAIS_GETDATE - Undefined

Program c:\...\projecto\ltserpfox\funcoes\documentos\confirmacaoencomendascliente.prg has the following errors:
    Unknown FECHA - Undefined
    Unknown UF_PERGUNTALT_CHAMA - Undefined
    Unknown UF_GERAIS_ACTGRELHA - Undefined
    Unknown REGUA - Undefined

Program c:\documentos\projecto\ltserpfox\funcoes\documentos\confrobotica.prg has the following errors:
    Unknown FECHA - Undefined
    Unknown UF_PERGUNTALT_CHAMA - Undefined
    Unknown UF_GERAIS_ACTGRELHA - Undefined
    Unknown REGUA - Undefined
    Unknown UF_GERAIS_STAMP - Undefined
    Unknown UF_GERAIS_GETPARAMETER - Undefined
    Unknown UF_GERAIS_NAVEGAPGFRAME - Undefined
    Unknown UF_ROBOT_VALIDATECNILABROBOTSTATE - Undefined
    Unknown ASTR - Undefined
    Unknown UF_ROBOT_GETCODINTREF - Undefined
    Unknown UF_ROBOT_LOG - Undefined
    Unknown UF_ROBOT_SERVICO_STATUS - Undefined
    Unknown UF_SERVICOS_UNBLOCKCHILKAT - Undefined
    Unknown UF_ROBOT_SERVICO_HEADER - Undefined
    Unknown UF_ROBOT_SERVICO_SEND - Undefined
    Unknown UF_GERAIS_GETUMVALOR - Undefined

Program c:\documentos\projecto\ltserpfox\funcoes\documentos\dadosentidade.prg has the following errors:
    Unknown UF_PERGUNTALT_CHAMA - Undefined
    Unknown UF_GERAIS_ACTGRELHA - Undefined

Program c:\documentos\projecto\ltserpfox\funcoes\documentos\documentos.prg has the following errors:
    Unknown FECHA - Undefined
    Unknown UF_PERGUNTALT_CHAMA - Undefined
    Unknown UF_GERAIS_ACTGRELHA - Undefined
    Unknown REGUA - Undefined
    Unknown UF_GERAIS_STAMP - Undefined
    Unknown UF_TECLADONUMERICO_CHAMA - Undefined
    Unknown UF_GERAIS_GRAVAULTREGISTO - Undefined
    Unknown UF_GERAIS_VALIDAPERMUSER - Undefined
    Unknown UF_GERAIS_GETPARAMETER - Undefined
    Unknown UF_GERAIS_GETDATE - Undefined
    Unknown ASTR - Undefined
    Unknown UF_GERAIS_GETUMVALOR - Undefined
    Proc./Func. PESQDOCUMENTOS - Undefined
    Proc./Func. PESQDOCUMENTOSCLIENTES - Undefined
    Proc./Func. PESQENTIDADES - Undefined
    Proc./Func. IMPORTARDOC - Undefined
    Proc./Func. DADOSENTIDADE - Undefined
    Proc./Func. OPCOESDIVERSASDOC - Undefined
    Proc./Func. FECHOAUTOMATICODOC - Undefined
    Proc./Func. CONFFACTURAS - Undefined
    Proc./Func. CONFROBOTICA - Undefined
    Proc./Func. PREPARARENCOMENDA - Undefined
    Proc./Func. ENCAUTOMATICAS - Undefined
    Proc./Func. RESERVACLSMS - Undefined
    Proc./Func. BONUSPROD - Undefined
    Proc./Func. VALPVPALT - Undefined
    Proc./Func. CONDICOESCOMERCIAIS - Undefined
    Proc./Func. EVOVENDAS - Undefined
    Proc./Func. IMPORTSELLOUT - Undefined
    Proc./Func. CONFIRMACAOENCOMENDASCLIENTE - Undefined
    Proc./Func. CONSOLIDACAOCOMPRAS - Undefined
    Proc./Func. LOGMSG - Undefined
    Proc./Func. DESCDOC - Undefined
    Proc./Func. CONSULTROBOT - Undefined
    Unknown UF_VALORESCOMBO_CHAMA - Undefined
    Unknown UF_GERAIS_GETTABELAIVA - Undefined
    Unknown UF_GERAIS_GETPARAMETER_SITE - Undefined
    Unknown UF_GERAIS_COMPSTR - Undefined
    Unknown UF_ORIGENSDESTINOS_CHAMA - Undefined
    Unknown UF_CHK_NOVA_VERSAO - Undefined
    Unknown UF_GERAIS_DEVOLVEULTREGISTO - Undefined
    Unknown UF_GERAIS_ADDCONNECTION - Undefined
    Unknown UF_GERAIS_GETROWHEIGHT - Undefined
    Unknown UF_CONFENCOMENDAS_CHAMA - Undefined
    Unknown UF_GERAIS_REGISTAOCORRENCIA - Undefined
    Unknown UF_GERAIS_INSERT_TEMPFILTERS - Undefined
    Unknown UF_TECLADOALPHA_CHAMA - Undefined
    Unknown UF_GERAIS_TRATAPLICASSQL - Undefined
    Unknown UF_GRAVARCERT - Undefined
    Unknown UF_GERAIS_CHECKNUMRECEITA - Undefined
    Unknown UF_GERAIS_MSGERRORECEITA - Undefined
    Unknown UF_GERAIS_VERIFYINTERNET - Undefined
    Unknown UF_RESERVAS_CRIA - Undefined
    Unknown UF_PSICOBENZO_CONTADOR_PSICO_BENZO_ENTRADASSAIDAS - Undefined
    Unknown UF_IMPRIMIRGERAIS_CHAMA - Undefined
    Unknown UF_GERAIS_RUNSQLCENTRAL - Undefined
    Unknown UF_STOCKS_CHAMA - Undefined
    Unknown UF_STOCKS_NOVO - Undefined
    Unknown UF_INSERT_FI_TRANS_INFO_SEMINFO - Undefined
    Unknown UF_FORN_NOVO - Undefined
    Unknown NAVEGA - Undefined
    Unknown UF_UTENTES_NOVO - Undefined
    Unknown UF_CHAMAGETDATEPRESC - Undefined
    Unknown UF_ANALISES_CHAMA - Undefined
    Unknown UF_ANALISES_GRAVAR - Undefined
    Unknown UF_IMPRIMIRGERAIS_SENDPRINTER_TALAO - Undefined
    Unknown UF_RESERVAS_IMPRIMETALAOPOS - Undefined
    Unknown UF_ETIQUETAS_CHAMA - Undefined
    Unknown UF_GERAIS_CHAMAESBORDERS_PEDIDOENCOMENDA - Undefined
    Unknown UF_IMPORTHONORARIOS_CHAMA - Undefined
    Unknown UF_GETDATE_CHAMA - Undefined
    Unknown UF_CONFENCOMENDAS_SAIR - Undefined
    Unknown UF_PESQFORNECEDORES_SAIR - Undefined
    Unknown UF_ORIGENSDESTINOS_SAIR - Undefined
    Unknown UF_IMPRIMIRGERAIS_SAIR - Undefined
    Unknown UF_RESERVAS_SAIR - Undefined
    Unknown UF_GERAIS_XLS2CURSOR - Undefined
    Unknown UF_GERAIS_GETFILE - Undefined
    Unknown UF_GERAIS_MEIAREGUA - Undefined
    Unknown UF_GERAIS_REMOVE_LAST_CARACTER_BY_CHAR - Undefined
    Unknown UF_GERAIS_RETORNA_CAMPOS_DATAMATRIX_SQL - Undefined
    Unknown UF_GERAIS_RETORNAAPENASALPHANUMERICOS - Undefined
    Unknown UF_GERAIS_GETFROMSTRING - Undefined
    Unknown UF_GERAIS_REGISTAERROLOG - Undefined
    Unknown UF_GERAIS_CHKCONEXAO - Undefined
    Unknown UF_GERAIS_EFORMATODATAVALIDODATAMATRIX - Undefined
    Unknown UF_VALIDA_INFO_CAIXAS_VERIFICACAO - Undefined
    Unknown UF_INFOEMBAL_PULLREFS - Undefined
    Unknown UF_ATENDIMENTO_VALIDA_ESTADO_DATAMATRIX - Undefined
    Unknown UF_ATENDIMENTO_DISPENSEPACKVERIFY - Undefined
    Unknown UF_ATENDIMENTO_UNDODISPENSESINGLEPACK - Undefined
    Unknown UF_VALIDA_INFO_CAIXAS_DISPENSA - Undefined
    Unknown UF_PAGAMENTO_GRAVARREG_MIXED_BULK_PEND - Undefined
    Unknown UF_GERAIS_NEWDOCNR - Undefined

Program c:\documentos\projecto\ltserpfox\funcoes\documentos\encautomaticas.prg has the following errors:
    Unknown FECHA - Undefined
    Unknown UF_PERGUNTALT_CHAMA - Undefined
    Unknown UF_GERAIS_ACTGRELHA - Undefined
    Unknown REGUA - Undefined
    Unknown UF_GERAIS_STAMP - Undefined
    Unknown UF_GERAIS_GRAVAULTREGISTO - Undefined
    Unknown UF_GERAIS_GETPARAMETER - Undefined
    Unknown UF_GERAIS_GETDATE - Undefined
    Unknown ASTR - Undefined
    Unknown UF_GERAIS_GETUMVALOR - Undefined
    Unknown UF_VALORESCOMBO_CHAMA - Undefined
    Unknown UF_GERAIS_COMPSTR - Undefined
    Unknown UF_GERAIS_TRATAPLICASSQL - Undefined
    Unknown UF_STOCKS_CHAMA - Undefined
    Unknown UF_STOCKS_NOVO - Undefined
    Unknown UF_GERAIS_CHAMAESBORDERS_PEDIDOENCOMENDA - Undefined
    Unknown UF_GERAIS_XLS2CURSOR - Undefined
    Unknown UF_GERAIS_GETFILE - Undefined
    Unknown UF_GERAIS_MEIAREGUA - Undefined
    Unknown UF_GERAIS_NEWDOCNR - Undefined
    Unknown UF_PESQSTOCKS_CHAMA - Undefined
    Unknown UF_PESQFORNECEDORES_CHAMA - Undefined
    Unknown UF_LISTADOCUMENTOS_CHAMA - Undefined
    Unknown UF_GERAIS_CHAMAESBORDERS_CONSULTAPRODUTOS - Undefined
    Unknown UF_PAGAMENTO_GRAVARCERT - Undefined
    Unknown LCSQLARRAY - Undefined
    Unknown UF_ENCOMENDAMED_DADOSFORNECEDORES - Undefined

Program c:\documentos\projecto\ltserpfox\funcoes\documentos\evovendas.prg has the following errors:
    Unknown FECHA - Undefined
    Unknown UF_PERGUNTALT_CHAMA - Undefined
    Unknown UF_GERAIS_ACTGRELHA - Undefined
    Unknown REGUA - Undefined
    Unknown UF_GERAIS_STAMP - Undefined
    Unknown UF_GERAIS_GETDATE - Undefined
    Unknown ASTR - Undefined
    Unknown UF_GERAIS_XLS2CURSOR - Undefined
    Unknown UF_GERAIS_GETMONTHTOMONTHABREV - Undefined
    Unknown UF_GERAIS_ISNUMERIC - Undefined

Program c:\documentos\projecto\ltserpfox\funcoes\documentos\fechoautomaticodoc.prg has the following errors:
    Unknown FECHA - Undefined
    Unknown UF_PERGUNTALT_CHAMA - Undefined
    Unknown UF_GERAIS_ACTGRELHA - Undefined
    Unknown UF_GERAIS_GETPARAMETER_SITE - Undefined
    Unknown UF_GERAIS_RUNSQLCENTRAL - Undefined
    Unknown UF_GERAIS_CHKCONEXAO - Undefined

Program c:\documentos\projecto\ltserpfox\funcoes\documentos\importardoc.prg has the following errors:
    Unknown FECHA - Undefined
    Unknown UF_PERGUNTALT_CHAMA - Undefined
    Unknown UF_GERAIS_ACTGRELHA - Undefined
    Unknown REGUA - Undefined
    Unknown UF_GERAIS_STAMP - Undefined
    Unknown UF_GERAIS_GETPARAMETER - Undefined
    Unknown UF_GERAIS_GETDATE - Undefined
    Unknown ASTR - Undefined
    Unknown UF_GERAIS_GETUMVALOR - Undefined
    Unknown UF_GERAIS_COMPSTR - Undefined
    Unknown UF_GERAIS_VERIFYINTERNET - Undefined
    Unknown UF_STOCKS_CHAMA - Undefined
    Unknown UF_STOCKS_NOVO - Undefined
    Unknown UF_INSERT_FI_TRANS_INFO_SEMINFO - Undefined
    Unknown UF_CHAMAGETDATEPRESC - Undefined
    Unknown UF_GERAIS_GETID - Undefined
    Unknown UF_GERAIS_CRIACURSOR_EXTESBORDERS - Undefined
    Unknown UF_GERAIS_CHAMAESBORDERSCLI - Undefined
    Unknown UF_GERAIS_GETREFFROMQR - Undefined

Program c:\documentos\projecto\ltserpfox\funcoes\documentos\importsellout.prg has the following errors:
    Unknown UF_PERGUNTALT_CHAMA - Undefined
    Unknown UF_GERAIS_ACTGRELHA - Undefined
    Unknown REGUA - Undefined

Program c:\documentos\projecto\ltserpfox\funcoes\documentos\pesqdocumentos.prg has the following errors:
    Unknown UF_GERAIS_CHAMAREPORT - Undefined
    Unknown FECHA - Undefined
    Unknown UF_PERGUNTALT_CHAMA - Undefined
    Unknown UF_GERAIS_ACTGRELHA - Undefined
    Unknown REGUA - Undefined
    Unknown UF_GERAIS_STAMP - Undefined
    Unknown UF_GERAIS_VALIDAPERMUSER - Undefined
    Unknown UF_GERAIS_GETPARAMETER - Undefined
    Unknown UF_GERAIS_GETDATE - Undefined
    Unknown UF_GERAIS_GETUMVALOR - Undefined
    Unknown UF_GERAIS_GETTABELAIVA - Undefined
    Unknown UF_GERAIS_GETREFFROMQR - Undefined
    Unknown UF_PAGFORN_IMPORTAMOVIMENTOSRESUMO - Undefined
    Unknown UF_FACTURACAO_CHAMA - Undefined
    Unknown UF_FACTURACAO_NOVO - Undefined
    Unknown UF_FACTURACAO_LIMPANOMEFACT - Undefined
    Unknown UF_FACTURACAO_VALORESDEFEITOFACT - Undefined
    Unknown UF_FACTURACAO_CONTROLANUMEROFACT - Undefined
    Unknown UF_ATENDIMENTO_FIILIQ - Undefined
    Unknown UF_ATENDIMENTO_ACTTOTAISFT - Undefined
    Unknown UF_FACTURACAO_CRIALINHADEFAULT - Undefined
    Unknown UF_ATENDIMENTO_SELCLIENTE - Undefined
    Unknown UF_IMPORTARFACT_CRIALINHAS_COMPBOFT - Undefined
    Unknown UF_ATENDIMENTO_ACTVALORESFI - Undefined
    Unknown UF_FACTURACAO_ATRIBUILOTESDOCUMENTO - Undefined

Program c:\documentos\projecto\ltserpfox\funcoes\documentos\pesqentidades.prg has the following errors:
    Unknown FECHA - Undefined
    Unknown UF_PERGUNTALT_CHAMA - Undefined
    Unknown UF_GERAIS_ACTGRELHA - Undefined
    Unknown REGUA - Undefined
    Unknown ASTR - Undefined

Program c:\documentos\projecto\ltserpfox\funcoes\documentos\prepararencomenda.prg has the following errors:
    Unknown FECHA - Undefined
    Unknown UF_PERGUNTALT_CHAMA - Undefined
    Unknown UF_GERAIS_ACTGRELHA - Undefined
    Unknown REGUA - Undefined
    Unknown UF_GERAIS_VALIDAPERMUSER - Undefined
    Unknown UF_GERAIS_GETPARAMETER - Undefined
    Unknown UF_VALORESCOMBO_CHAMA - Undefined
    Unknown UF_GETDATE_CHAMA - Undefined

Program c:\documentos\projecto\ltserpfox\funcoes\documentos\reservaclsms.prg has the following errors:
    Unknown UF_PERGUNTALT_CHAMA - Undefined
    Unknown UF_GERAIS_ACTGRELHA - Undefined
    Unknown REGUA - Undefined
    Unknown UF_GERAIS_STAMP - Undefined
    Unknown UF_GERAIS_GETPARAMETER - Undefined
    Unknown UF_PARAM_SMS_ATUALIZA - Undefined

Form c:\documentos\projecto\ltserpfox\funcoes\documentos\bonusprod.scx has the following errors:
    Unknown UF_GERAIS_GETROWHEIGHT - Undefined
    Unknown UF_GERAIS_FORMBACKCOLOR - Undefined
    Unknown UF_GERAIS_ATALHOS - Undefined
    Unknown UF_GERAIS_SHAPEBACKCOLOR - Undefined
    Unknown UF_GERAIS_GETHEADERHEIGHT - Undefined
    Unknown UF_GERAIS_CRIACURSORPROCURAGRELHA - Undefined
    Unknown UF_GERAIS_PROCURALINHASEGUINTEGRELHA - Undefined

Form c:\documentos\projecto\ltserpfox\funcoes\documentos\condicoescomerciais.scx has the following errors:
    Unknown UF_VALORESCOMBO_CHAMA - Undefined
    Unknown UF_GERAIS_GETROWHEIGHT - Undefined
    Unknown UF_GERAIS_FORMBACKCOLOR - Undefined
    Unknown UF_GERAIS_ATALHOS - Undefined
    Unknown UF_GERAIS_SHAPEBACKCOLOR - Undefined
    Unknown UF_GERAIS_GETHEADERHEIGHT - Undefined
    Unknown UF_GERAIS_MOVEPAGE - Undefined

Form c:\documentos\projecto\ltserpfox\funcoes\documentos\confencomendas.scx has the following errors:
    Unknown UF_GERAIS_ACTGRELHA - Undefined
    Unknown UF_GERAIS_GETPARAMETER - Undefined
    Unknown UF_GERAIS_NAVEGAPGFRAME - Undefined
    Unknown UF_GERAIS_GETROWHEIGHT - Undefined
    Unknown UF_GERAIS_FORMBACKCOLOR - Undefined
    Unknown UF_GERAIS_ATALHOS - Undefined
    Unknown UF_GERAIS_SHAPEBACKCOLOR - Undefined
    Unknown UF_GERAIS_GETHEADERHEIGHT - Undefined
    Unknown UF_GERAIS_CRIACURSORPROCURAGRELHA - Undefined
    Unknown UF_GERAIS_PROCURALINHASEGUINTEGRELHA - Undefined
    Unknown UF_CONFENCOMENDAS_QTTOTAIS - Undefined
    Unknown UF_CONFENCOMENDAS_LOSTFOCUS - Undefined
    Unknown UF_CONFENCOMENDAS_ABRERECROBOMF - Undefined
    Unknown UF_CONFENCOMENDAS_FECHARRECROBOP - Undefined
    Unknown UF_CONFENCOMENDAS_ALTERANRRECROBO - Undefined
    Unknown UF_CONFENCOMENDAS_SETTIMERCENC - Undefined
    File ANTERIOR_PEQ.PNG - Undefined
    File SETALIGACAO.PNG - Undefined
    Unknown UF_CONFENCOMENDAS_CONTROLASTOCK - Undefined
    Unknown UF_CONFENCOMENDAS_VALIDAVALIDADECE - Undefined
    Unknown UF_CONFENCOMENDAS_CALCULAMARGEMREGRESSIVA - Undefined
    Unknown UF_PESQLOTE_CHAMA - Undefined
    Unknown UF_CONFENCOMENDAS_EXPANDEGRIDLINHAS - Undefined
    Unknown UF_GERAIS_GETESTADOTOUCH - Undefined
    Unknown UF_GERAIS_POSICIONAOBJECTOSTOP - Undefined

Form c:\documentos\projecto\ltserpfox\funcoes\documentos\conffact.scx has the following errors:
    Unknown UF_GERAIS_GETDATE - Undefined
    Unknown UF_GERAIS_GETROWHEIGHT - Undefined
    Unknown UF_GETDATE_CHAMA - Undefined
    Unknown UF_GERAIS_FORMBACKCOLOR - Undefined
    Unknown UF_GERAIS_ATALHOS - Undefined
    Unknown UF_GERAIS_SHAPEBACKCOLOR - Undefined
    Unknown UF_GERAIS_GETHEADERHEIGHT - Undefined

Form c:\...\projecto\ltserpfox\funcoes\documentos\confirmacaoencomendascliente.scx has the following errors:
    Unknown FECHA - Undefined
    Unknown UF_PERGUNTALT_CHAMA - Undefined
    Unknown UF_GERAIS_ACTGRELHA - Undefined
    Unknown UF_VALORESCOMBO_CHAMA - Undefined
    Unknown UF_GERAIS_GETROWHEIGHT - Undefined
    Unknown UF_STOCKS_CHAMA - Undefined
    Unknown UF_GERAIS_FORMBACKCOLOR - Undefined
    Unknown UF_GERAIS_ATALHOS - Undefined
    Unknown UF_GERAIS_SHAPEBACKCOLOR - Undefined
    Unknown UF_GERAIS_GETHEADERHEIGHT - Undefined
    Unknown UF_GERAIS_CRIACURSORPROCURAGRELHA - Undefined
    Unknown UF_GERAIS_PROCURALINHASEGUINTEGRELHA - Undefined

Form c:\documentos\projecto\ltserpfox\funcoes\documentos\dadosentidade.scx has the following errors:
    Unknown UF_GERAIS_FORMBACKCOLOR - Undefined
    Unknown UF_GERAIS_ATALHOS - Undefined
    Unknown UF_GERAIS_SHAPEBACKCOLOR - Undefined

Form c:\documentos\projecto\ltserpfox\funcoes\documentos\documentos.scx has the following errors:
    Unknown FECHA - Undefined
    Unknown UF_PERGUNTALT_CHAMA - Undefined
    Unknown UF_GERAIS_ACTGRELHA - Undefined
    Unknown UF_GERAIS_GETPARAMETER - Undefined
    Unknown UF_GERAIS_NAVEGAPGFRAME - Undefined
    Unknown UF_GERAIS_GETUMVALOR - Undefined
    Unknown UF_VALORESCOMBO_CHAMA - Undefined
    Unknown UF_GERAIS_COMPSTR - Undefined
    Unknown UF_GETDATE_CHAMA - Undefined
    Unknown UF_PESQFORNECEDORES_CHAMA - Undefined
    Unknown UF_GERAIS_FORMBACKCOLOR - Undefined
    Unknown UF_GERAIS_ATALHOS - Undefined
    Unknown UF_GERAIS_SHAPEBACKCOLOR - Undefined
    Unknown UF_GERAIS_CRIACURSORPROCURAGRELHA - Undefined
    Unknown UF_GERAIS_PROCURALINHASEGUINTEGRELHA - Undefined
    File SETALIGACAO.PNG - Undefined
    Unknown UF_FORN_CHAMA - Undefined
    Unknown UF_UTENTES_CHAMA - Undefined
    Unknown UF_PESQUTENTES_CHAMA - Undefined
    Unknown UF_ANEXARDOC_CHAMA - Undefined

Form c:\documentos\projecto\ltserpfox\funcoes\documentos\encautomaticas.scx has the following errors:
    Unknown UF_PERGUNTALT_CHAMA - Undefined
    Unknown UF_GERAIS_ACTGRELHA - Undefined
    Unknown UF_VALORESCOMBO_CHAMA - Undefined
    Unknown UF_GERAIS_GETPARAMETER_SITE - Undefined
    Unknown UF_GERAIS_COMPSTR - Undefined
    Unknown UF_GERAIS_GETROWHEIGHT - Undefined
    Unknown UF_STOCKS_CHAMA - Undefined
    Unknown UF_PESQFORNECEDORES_CHAMA - Undefined
    Unknown UF_GERAIS_FORMBACKCOLOR - Undefined
    Unknown UF_GERAIS_ATALHOS - Undefined
    Unknown UF_GERAIS_SHAPEBACKCOLOR - Undefined
    Unknown UF_GERAIS_GETHEADERHEIGHT - Undefined
    Unknown UF_GERAIS_CRIACURSORPROCURAGRELHA - Undefined
    Unknown UF_GERAIS_PROCURALINHASEGUINTEGRELHA - Undefined
    Unknown UF_GERAIS_ORDENAGRELHA - Undefined
    Unknown UF_STOCKPORARMAZEM_CHAMA - Undefined
    Unknown UF_MAISBARATOS_CHAMA - Undefined

Form c:\documentos\projecto\ltserpfox\funcoes\documentos\evovendas.scx has the following errors:
    Unknown UF_VALORESCOMBO_CHAMA - Undefined
    Unknown UF_GERAIS_GETROWHEIGHT - Undefined
    Unknown UF_GETDATE_CHAMA - Undefined
    Unknown UF_GERAIS_FORMBACKCOLOR - Undefined
    Unknown UF_GERAIS_ATALHOS - Undefined
    Unknown UF_GERAIS_SHAPEBACKCOLOR - Undefined
    Unknown UF_GERAIS_GETHEADERHEIGHT - Undefined

Form c:\documentos\projecto\ltserpfox\funcoes\documentos\fechoautomaticodoc.scx has the following errors:
    Unknown UF_GERAIS_FORMBACKCOLOR - Undefined
    Unknown UF_GERAIS_ATALHOS - Undefined
    Unknown UF_GERAIS_SHAPEBACKCOLOR - Undefined

Form c:\documentos\projecto\ltserpfox\funcoes\documentos\importardoc.scx has the following errors:
    Unknown FECHA - Undefined
    Unknown UF_PERGUNTALT_CHAMA - Undefined
    Unknown UF_GERAIS_ACTGRELHA - Undefined
    Unknown REGUA - Undefined
    Unknown UF_GERAIS_GETPARAMETER - Undefined
    Unknown UF_GERAIS_GETDATE - Undefined
    Unknown UF_GERAIS_NAVEGAPGFRAME - Undefined
    Unknown UF_VALORESCOMBO_CHAMA - Undefined
    Unknown UF_GERAIS_COMPSTR - Undefined
    Unknown UF_GERAIS_GETROWHEIGHT - Undefined
    Unknown UF_GETDATE_CHAMA - Undefined
    Unknown UF_GERAIS_FORMBACKCOLOR - Undefined
    Unknown UF_GERAIS_ATALHOS - Undefined
    Unknown UF_GERAIS_SHAPEBACKCOLOR - Undefined
    Unknown UF_GERAIS_GETHEADERHEIGHT - Undefined
    Unknown UF_GERAIS_ORDENAGRELHA - Undefined

Form c:\documentos\projecto\ltserpfox\funcoes\documentos\importsellout.scx has the following errors:
    Unknown UF_GERAIS_GETDATE - Undefined
    Unknown UF_VALORESCOMBO_CHAMA - Undefined
    Unknown UF_GERAIS_GETROWHEIGHT - Undefined
    Unknown UF_GETDATE_CHAMA - Undefined
    Unknown UF_GERAIS_FORMBACKCOLOR - Undefined
    Unknown UF_GERAIS_ATALHOS - Undefined
    Unknown UF_GERAIS_SHAPEBACKCOLOR - Undefined
    Unknown UF_GERAIS_GETHEADERHEIGHT - Undefined
    Unknown UF_GERAIS_MOVEPAGE - Undefined

Form c:\documentos\projecto\ltserpfox\funcoes\documentos\opcoesdiversasdoc.scx has the following errors:
    Unknown UF_GERAIS_FORMBACKCOLOR - Undefined
    Unknown UF_GERAIS_ATALHOS - Undefined
    Unknown UF_GERAIS_SHAPEBACKCOLOR - Undefined

Form c:\documentos\projecto\ltserpfox\funcoes\documentos\pesqdocumentos.scx has the following errors:
    Unknown FECHA - Undefined
    Unknown UF_PERGUNTALT_CHAMA - Undefined
    Unknown UF_GERAIS_ACTGRELHA - Undefined
    Unknown UF_GERAIS_VALIDAPERMUSER - Undefined
    Unknown UF_GERAIS_GETDATE - Undefined
    Unknown ASTR - Undefined
    Unknown UF_VALORESCOMBO_CHAMA - Undefined
    Unknown UF_GERAIS_GETPARAMETER_SITE - Undefined
    Unknown UF_GERAIS_GETROWHEIGHT - Undefined
    Unknown UF_GETDATE_CHAMA - Undefined
    Unknown UF_GERAIS_FORMBACKCOLOR - Undefined
    Unknown UF_GERAIS_ATALHOS - Undefined
    Unknown UF_GERAIS_SHAPEBACKCOLOR - Undefined
    Unknown UF_GERAIS_GETHEADERHEIGHT - Undefined

Form c:\documentos\projecto\ltserpfox\funcoes\documentos\pesqentidades.scx has the following errors:
    Unknown UF_GERAIS_GETROWHEIGHT - Undefined
    Unknown UF_GERAIS_FORMBACKCOLOR - Undefined
    Unknown UF_GERAIS_ATALHOS - Undefined
    Unknown UF_GERAIS_SHAPEBACKCOLOR - Undefined
    Unknown UF_GERAIS_GETHEADERHEIGHT - Undefined
    Unknown UF_CHAMAFORN - Undefined
    Unknown UF_CHAMACLIENTE - Undefined

Form c:\documentos\projecto\ltserpfox\funcoes\documentos\prepararencomenda.scx has the following errors:
    Unknown UF_GERAIS_GETPARAMETER - Undefined
    Unknown UF_GERAIS_GETDATE - Undefined
    Unknown UF_VALORESCOMBO_CHAMA - Undefined
    Unknown UF_GERAIS_GETROWHEIGHT - Undefined
    Unknown UF_GERAIS_FORMBACKCOLOR - Undefined
    Unknown UF_GERAIS_ATALHOS - Undefined
    Unknown UF_GERAIS_SHAPEBACKCOLOR - Undefined
    Unknown UF_GERAIS_GETHEADERHEIGHT - Undefined

Form c:\documentos\projecto\ltserpfox\funcoes\documentos\reservaclsms.scx has the following errors:
    Unknown UF_GERAIS_GETROWHEIGHT - Undefined
    Unknown UF_GERAIS_FORMBACKCOLOR - Undefined
    Unknown UF_GERAIS_ATALHOS - Undefined
    Unknown UF_GERAIS_SHAPEBACKCOLOR - Undefined
    Unknown UF_GERAIS_GETHEADERHEIGHT - Undefined

Form c:\documentos\projecto\ltserpfox\funcoes\documentos\valpvpalt.scx has the following errors:
    Unknown UF_GERAIS_GETROWHEIGHT - Undefined
    Unknown UF_GERAIS_FORMBACKCOLOR - Undefined
    Unknown UF_GERAIS_ATALHOS - Undefined
    Unknown UF_GERAIS_SHAPEBACKCOLOR - Undefined
    Unknown UF_GERAIS_GETHEADERHEIGHT - Undefined
    Unknown UF_GERAIS_CRIACURSORPROCURAGRELHA - Undefined
    Unknown UF_GERAIS_PROCURALINHASEGUINTEGRELHA - Undefined

Visual Class Library c:\documentos\projecto\ltserpfox\funcoes\gerais\menu.vcx has the following errors:
    Unknown UF_GERAIS_GETPARAMETER - Undefined
    Unknown ASTR - Undefined
    Unknown UF_STARTUP_RECOVERAPPS - Undefined
    Proc./Func. UF_STARTUP_STARTTERMINAL - Undefined
    Unknown UF_GERAIS_REDRAWOPCOES - Undefined
    Unknown GETUMVALOR - Undefined
    Unknown UF_GERAIS_KEYSTROKES - Undefined

Visual Class Library c:\documentos\projecto\ltserpfox\funcoes\gerais\class_tecladovirtual.vcx has the following errors:
    Unknown UF_GERAIS_CLICKEFFECT - Undefined
    Unknown UF_PAGAMENTO_RESETVALORESMODOPAG - Undefined
    Unknown UF_ALTERAMEIOSPAG_RESETVALORESMODOPAG - Undefined

Visual Class Library c:\documentos\projecto\ltserpfox\funcoes\gerais\disponibilidades.vcx has the following errors:
    Unknown UF_PERGUNTALT_CHAMA - Undefined
    Unknown UF_GERAIS_ACTGRELHA - Undefined
    Unknown UF_GERAIS_GETROWHEIGHT - Undefined
    Unknown UF_GERAIS_GETHEADERHEIGHT - Undefined
    Unknown UF_GERAIS_APLICALANGUAGE - Undefined

Visual Class Library c:\documentos\projecto\ltserpfox\funcoes\gerais\dia.vcx has the following errors:
    Unknown UF_MARCACOES_APLICADIA - Undefined

Visual Class Library c:\documentos\projecto\ltserpfox\funcoes\stocks\detalhest.vcx has the following errors:
    Unknown FECHA - Undefined
    Unknown UF_PERGUNTALT_CHAMA - Undefined
    Unknown UF_GERAIS_ACTGRELHA - Undefined
    Unknown UF_GERAIS_GETDATE - Undefined
    Unknown UF_GERAIS_NAVEGAPGFRAME - Undefined
    Unknown UF_GERAIS_GETUMVALOR - Undefined
    Unknown UF_VALORESCOMBO_CHAMA - Undefined
    Unknown UF_GERAIS_GETPARAMETER_SITE - Undefined
    Unknown UF_GERAIS_COMPSTR - Undefined
    Unknown UF_GERAIS_GETROWHEIGHT - Undefined
    Unknown UF_GETDATE_CHAMA - Undefined
    Unknown UF_PESQFORNECEDORES_CHAMA - Undefined
    Unknown UF_FACTURACAO_CHAMA - Undefined
    Unknown UF_GERAIS_GETHEADERHEIGHT - Undefined
    Unknown UF_GERAIS_MOVEPAGE - Undefined
    Unknown UF_STOCKPORARMAZEM_CHAMA - Undefined
    Unknown UF_STOCKS_GETSQLQTTVENDAS - Undefined
    Unknown UF_STOCKS_DETALHEST_CLEANCURSORSPRECOSSPMS - Undefined
    Unknown UF_STOCKS_GETSQLULTANO - Undefined
    Unknown UF_PESQARMAZEM_CHAMA - Undefined
    Unknown UF_SERVICOS_PRICESDEM_CLOSECURSORS - Undefined
    Unknown UF_STOCKS_DETALHEST_VERIFICAECRA_PRECOSSPMS - Undefined

Visual Class Library c:\documentos\projecto\ltserpfox\funcoes\gerais\filtros.vcx has the following errors:
    Unknown FECHA - Undefined
    Unknown UF_GERAIS_ACTGRELHA - Undefined
    Unknown UF_GERAIS_STAMP - Undefined
    Unknown UF_VALORESCOMBO_CHAMA - Undefined
    Unknown UF_GERAIS_GETROWHEIGHT - Undefined
    Unknown UF_GERAIS_INSERT_TEMPFILTERS - Undefined
    Unknown UF_GERAIS_CLICKEFFECT - Undefined
    Unknown UF_ANALISES_ALTERAGRUPO - Undefined
    Unknown UF_FAMILIAS_CHAMA - Undefined
    Unknown UF_GERAIS_FILLDATACOMBOBOX - Undefined
    Unknown UF_FILTRADCI_CHAMA - Undefined

Form c:\documentos\projecto\ltserpfox\funcoes\documentos\consolidacaocompras.scx has the following errors:
    Unknown UF_GERAIS_GETROWHEIGHT - Undefined
    Unknown UF_GERAIS_FORMBACKCOLOR - Undefined
    Unknown UF_GERAIS_ATALHOS - Undefined
    Unknown UF_GERAIS_SHAPEBACKCOLOR - Undefined
    Unknown UF_GERAIS_GETHEADERHEIGHT - Undefined
    Unknown UF_GERAIS_CRIACURSORPROCURAGRELHA - Undefined
    Unknown UF_GERAIS_PROCURALINHASEGUINTEGRELHA - Undefined

Program c:\documentos\projecto\ltserpfox\funcoes\documentos\consolidacaocompras.prg has the following errors:
    Unknown FECHA - Undefined
    Unknown UF_PERGUNTALT_CHAMA - Undefined
    Unknown UF_GERAIS_ACTGRELHA - Undefined
    Unknown ASTR - Undefined
    Unknown UF_GERAIS_GETUMVALOR - Undefined
    Unknown UF_GERAIS_GETROWHEIGHT - Undefined
    Unknown UF_PESQSTOCKS_CHAMA - Undefined
    Unknown UF_GERAIS_GETHEADERHEIGHT - Undefined
    Unknown UF_GERAIS_CALCULAMES - Undefined
    Unknown UF_GERAIS_CREATEDIR - Undefined

Form c:\documentos\projecto\ltserpfox\funcoes\documentos\logmsg.scx has the following errors:
    Unknown UF_GERAIS_FORMBACKCOLOR - Undefined
    Unknown UF_GERAIS_ATALHOS - Undefined
    Unknown UF_GERAIS_SHAPEBACKCOLOR - Undefined

Program c:\documentos\projecto\ltserpfox\funcoes\documentos\logmsg.prg has the following errors:
    Unknown FECHA - Undefined
    Unknown UF_PERGUNTALT_CHAMA - Undefined
    Unknown UF_GERAIS_ACTGRELHA - Undefined
    Unknown REGUA - Undefined

Form c:\documentos\projecto\ltserpfox\funcoes\documentos\descdoc.scx has the following errors:
    Unknown UF_GERAIS_GETROWHEIGHT - Undefined
    Unknown UF_GERAIS_FORMBACKCOLOR - Undefined
    Unknown UF_GERAIS_ATALHOS - Undefined
    Unknown UF_GERAIS_SHAPEBACKCOLOR - Undefined
    Unknown UF_GERAIS_GETHEADERHEIGHT - Undefined

Program c:\documentos\projecto\ltserpfox\funcoes\documentos\descdoc.prg has the following errors:
    Unknown FECHA - Undefined

Program c:\documentos\projecto\ltserpfox\funcoes\documentos\pesqdocumentosclientes.prg has the following errors:
    Unknown UF_GERAIS_CHAMAREPORT - Undefined
    Unknown FECHA - Undefined
    Unknown UF_PERGUNTALT_CHAMA - Undefined
    Unknown UF_GERAIS_ACTGRELHA - Undefined
    Unknown REGUA - Undefined
    Unknown UF_GERAIS_STAMP - Undefined
    Unknown UF_GERAIS_VALIDAPERMUSER - Undefined
    Unknown UF_GERAIS_GETPARAMETER - Undefined
    Unknown UF_GERAIS_GETDATE - Undefined
    Unknown ASTR - Undefined
    Unknown UF_GERAIS_GETUMVALOR - Undefined
    Unknown UF_GERAIS_GETTABELAIVA - Undefined
    Unknown UF_GERAIS_GETPARAMETER_SITE - Undefined
    Unknown UF_GERAIS_COMPSTR - Undefined
    Unknown UF_GERAIS_INSERT_TEMPFILTERS - Undefined
    Unknown UF_GERAIS_RUNSQLCENTRAL - Undefined
    Unknown UF_GERAIS_CHKCONEXAO - Undefined
    Unknown UF_GERAIS_GETREFFROMQR - Undefined
    Unknown UF_PAGFORN_IMPORTAMOVIMENTOSRESUMO - Undefined
    Unknown UF_FACTURACAO_CHAMA - Undefined
    Unknown UF_FACTURACAO_NOVO - Undefined
    Unknown UF_FACTURACAO_LIMPANOMEFACT - Undefined
    Unknown UF_FACTURACAO_VALORESDEFEITOFACT - Undefined
    Unknown UF_FACTURACAO_CONTROLANUMEROFACT - Undefined
    Unknown UF_ATENDIMENTO_FIILIQ - Undefined
    Unknown UF_ATENDIMENTO_ACTTOTAISFT - Undefined
    Unknown UF_FACTURACAO_CRIALINHADEFAULT - Undefined
    Unknown UF_ATENDIMENTO_SELCLIENTE - Undefined
    Unknown UF_IMPORTARFACT_CRIALINHAS_COMPBOFT - Undefined
    Unknown UF_ATENDIMENTO_ACTVALORESFI - Undefined
    Unknown UF_FACTURACAO_ATRIBUILOTESDOCUMENTO - Undefined
    Unknown UF_PESQUTENTES_ACTPLAFONDCENTRAL - Undefined

Form c:\documentos\projecto\ltserpfox\funcoes\documentos\pesqdocumentosclientes.scx has the following errors:
    Unknown FECHA - Undefined
    Unknown UF_PERGUNTALT_CHAMA - Undefined
    Unknown UF_GERAIS_ACTGRELHA - Undefined
    Unknown UF_GERAIS_VALIDAPERMUSER - Undefined
    Unknown UF_GERAIS_GETDATE - Undefined
    Unknown ASTR - Undefined
    Unknown UF_VALORESCOMBO_CHAMA - Undefined
    Unknown UF_GERAIS_GETPARAMETER_SITE - Undefined
    Unknown UF_GERAIS_GETROWHEIGHT - Undefined
    Unknown UF_GETDATE_CHAMA - Undefined
    Unknown UF_GERAIS_FORMBACKCOLOR - Undefined
    Unknown UF_GERAIS_ATALHOS - Undefined
    Unknown UF_GERAIS_SHAPEBACKCOLOR - Undefined
    Unknown UF_GERAIS_GETHEADERHEIGHT - Undefined
    Unknown UF_GERAIS_MAXIMIZARJANELA - Undefined

Form c:\documentos\projecto\ltserpfox\funcoes\documentos\consultrobot.scx has the following errors:
    Unknown UF_GERAIS_GETROWHEIGHT - Undefined
    Unknown UF_GERAIS_ATALHOS - Undefined
    Unknown UF_GERAIS_SHAPEBACKCOLOR - Undefined
    Unknown UF_GERAIS_GETHEADERHEIGHT - Undefined

Program c:\documentos\projecto\ltserpfox\funcoes\documentos\consultrobot.prg has the following errors:
    Unknown FECHA - Undefined
    Unknown UF_PERGUNTALT_CHAMA - Undefined
    Unknown UF_GERAIS_ACTGRELHA - Undefined

Visual Class Library c:\documentos\projecto\ltserpfox\funcoes\gerais\dadosuser.vcx has the following errors:
    Unknown UF_PAINELCENTRAL_MOSTRAOPCOES - Undefined

Visual Class Library c:\documentos\projecto\ltserpfox\funcoes\gerais\titlebar.vcx has the following errors:
    Unknown UF_GERAIS_COMPSTR - Undefined
    Unknown UF_GERAIS_MAXIMIZARJANELA - Undefined
    Unknown UF_GERAIS_DIMINUIRJANELA - Undefined
    Unknown UF_GERAIS_MINIMIZARJANELA - Undefined
    Unknown UF_GERAIS_FECHARJANELA - Undefined

