Form c:\documentos\projecto\ltserpfox\funcoes\analises\analises.scx has the following errors:
    Unknown UF_GERAIS_FORMBACKCOLOR - Undefined
    Unknown UF_GERAIS_ATALHOS - Undefined
    Unknown UF_GERAIS_SHAPEBACKCOLOR - Undefined
    Unknown UF_GERAIS_GETROWHEIGHT - Undefined

Program c:\documentos\projecto\ltserpfox\funcoes\analises\analises.prg has the following errors:
    Proc./Func. PESQANALISES - Undefined
    Unknown UF_GERAIS_VALIDAPERMUSER - Undefined
    Unknown UF_PERGUNTALT_CHAMA - Undefined
    Unknown UF_GERAIS_ADDCONNECTION - Undefined
    Unknown REGUA - Undefined
    Unknown UF_GERAIS_ACTGRELHA - Undefined
    Unknown FECHA - Undefined
    Unknown UF_RELATORIO_CHAMA - Undefined
    Unknown UF_PAINELCENTRAL_ALTERNAPAGINA - Undefined
    Unknown UF_GERAIS_GETPARAMETER_SITE - Undefined
    Unknown UF_ROBOT_SERVICO_TERMINAL_MAPEADO - Undefined
    Unknown UF_GERAIS_MEIAREGUA - Undefined
    Unknown UF_GERAIS_STAMP - Undefined
    Unknown UF_ROBOT_SERVICO_STATUS - Undefined
    Unknown UF_ROBOT_SERVICO_STATUS_RESPONSE - Undefined
    Unknown UF_ROBOT_SERVICO_RETRIEVE_LINE - Undefined
    Unknown ASTR - Undefined
    Unknown UF_GERAIS_TRATACARATERESRESERVADOSURL - Undefined
    Unknown UF_GERAIS_GETPARAMETER - Undefined
    Unknown UF_GERAIS_GETUMVALOR - Undefined
    Unknown UF_LISTASMS_CHAMA - Undefined
    Unknown UF_ROBOT_SERVICOS_PROCESSINVENTARIO - Undefined
    Unknown UF_WDGBROWSER_ABREURL - Undefined
    Unknown UF_GERAIS_CREATEDIR - Undefined
    Unknown UF_GERAIS_GETDATE - Undefined
    Unknown UF_GERAIS_GETREQUEST - Undefined
    Unknown UF_TECLADOALPHA_CHAMA - Undefined
    Unknown UF_GERAIS_ENVIASAFTEL - Undefined
    Unknown UF_GERAIS_DELETEFILES - Undefined

Visual Class Library c:\documentos\projecto\ltserpfox\funcoes\gerais\menu.vcx has the following errors:
    Unknown ASTR - Undefined
    Unknown UF_GERAIS_GETPARAMETER - Undefined
    Unknown UF_STARTUP_RECOVERAPPS - Undefined
    Proc./Func. UF_STARTUP_STARTTERMINAL - Undefined
    Unknown UF_GERAIS_REDRAWOPCOES - Undefined
    Unknown GETUMVALOR - Undefined
    Unknown UF_GERAIS_KEYSTROKES - Undefined

Form c:\documentos\projecto\ltserpfox\funcoes\analises\pesqanalises.scx has the following errors:
    Unknown UF_GERAIS_FORMBACKCOLOR - Undefined
    Unknown UF_GERAIS_ATALHOS - Undefined
    Unknown UF_GERAIS_GETROWHEIGHT - Undefined
    Unknown UF_GERAIS_GETHEADERHEIGHT - Undefined

Program c:\documentos\projecto\ltserpfox\funcoes\analises\pesqanalises.prg has the following errors:
    Unknown UF_PERGUNTALT_CHAMA - Undefined
    Unknown REGUA - Undefined
    Unknown UF_GERAIS_ACTGRELHA - Undefined
    Unknown FECHA - Undefined
    Unknown UF_LOGITOOLS_SQLEXEC - Undefined

Visual Class Library c:\documentos\projecto\ltserpfox\funcoes\gerais\filtros.vcx has the following errors:
    Unknown UF_GERAIS_GETROWHEIGHT - Undefined
    Unknown UF_GERAIS_ACTGRELHA - Undefined
    Unknown FECHA - Undefined
    Unknown UF_GERAIS_STAMP - Undefined
    Unknown UF_GERAIS_CLICKEFFECT - Undefined
    Unknown UF_VALORESCOMBO_CHAMA - Undefined
    Unknown UF_FAMILIAS_CHAMA - Undefined
    Unknown UF_GERAIS_FILLDATACOMBOBOX - Undefined
    Unknown UF_FILTRADCI_CHAMA - Undefined
    Unknown UF_GERAIS_INSERT_TEMPFILTERS - Undefined

Visual Class Library c:\documentos\projecto\ltserpfox\funcoes\gerais\dadosuser.vcx has the following errors:
    Unknown UF_PAINELCENTRAL_MOSTRAOPCOES - Undefined

