Program c:\documentos\projecto\ltserpfox\funcoes\arquivo_digital\arquivo_digital.prg has the following errors:
    Unknown UF_PERGUNTALT_CHAMA - Undefined
    Unknown REGUA - Undefined
    Unknown UF_GERAIS_ADDCONNECTION - Undefined
    Unknown UF_GERAIS_VALIDAPERMUSER - Undefined
    Unknown UF_PESQUTENTES_SAIR - Undefined
    Unknown UF_GERAIS_ACTGRELHA - Undefined
    Unknown FECHA - Undefined
    Unknown UF_IMPRIMIRPOS_PREVTALAO - Undefined
    Unknown ASTR - Undefined
    Unknown UF_IMPRIMIRPOS_IMPTALAO - Undefined
    Unknown UF_GERAIS_GETDATE - Undefined
    Unknown UF_GERAIS_EXTENSO - Undefined
    Unknown UF_GERAIS_CALCULAMES - Undefined
    Unknown UF_IMPRIMIRGERAIS_DATAMATRIXCRIAIMAGEM - Undefined

Form c:\documentos\projecto\ltserpfox\funcoes\arquivo_digital\arquivo_digital.scx has the following errors:
    Unknown FECHA - Undefined
    Unknown UF_GERAIS_GETDATE - Undefined
    Unknown UF_GERAIS_FORMBACKCOLOR - Undefined
    Unknown UF_GERAIS_ATALHOS - Undefined
    Unknown UF_GERAIS_SHAPEBACKCOLOR - Undefined
    Unknown UF_VALORESCOMBO_CHAMA - Undefined
    Unknown UF_GETDATE_CHAMA - Undefined
    Unknown UF_GERAIS_GETROWHEIGHT - Undefined
    Unknown UF_GERAIS_GETHEADERHEIGHT - Undefined
    Unknown UF_GERAIS_GETPARAMETER - Undefined
    Unknown UF_GERAIS_NAVEGAPGFRAME - Undefined

Visual Class Library c:\documentos\projecto\ltserpfox\funcoes\gerais\menu.vcx has the following errors:
    Unknown ASTR - Undefined
    Unknown UF_GERAIS_GETPARAMETER - Undefined
    Unknown UF_STARTUP_RECOVERAPPS - Undefined
    Proc./Func. UF_STARTUP_STARTTERMINAL - Undefined
    Unknown UF_GERAIS_REDRAWOPCOES - Undefined
    Unknown GETUMVALOR - Undefined
    Unknown UF_GERAIS_KEYSTROKES - Undefined

Visual Class Library c:\documentos\projecto\ltserpfox\funcoes\gerais\dadosuser.vcx has the following errors:
    Unknown UF_GERAIS_GETPARAMETER - Undefined
    Unknown UF_PAINELCENTRAL_MOSTRAOPCOES - Undefined

