Form c:\documentos\projecto\ltserpfox\funcoes\reservas_clientes\reservas.scx has the following errors:
    Unknown UF_GERAIS_ATALHOS - Undefined
    Unknown UF_GERAIS_FORMBACKCOLOR - Undefined
    Unknown UF_GERAIS_GETPARAMETER - Undefined
    Unknown UF_GERAIS_GETPARAMETER_SITE - Undefined
    Unknown UF_GERAIS_SHAPEBACKCOLOR - Undefined
    Unknown UF_GERAIS_GETROWHEIGHT - Undefined
    Unknown UF_GERAIS_GETHEADERHEIGHT - Undefined
    Unknown UF_PERGUNTALT_CHAMA - Undefined
    Unknown UF_VALORESCOMBO_CHAMA - Undefined
    Unknown UF_TECLADONUMERICO_CHAMA - Undefined
    Unknown UF_GERAIS_ORDENAGRELHA - Undefined

Program c:\documentos\projecto\ltserpfox\funcoes\reservas_clientes\listareservas.prg has the following errors:
    Unknown UF_GERAIS_GETPARAMETER - Undefined
    Unknown UF_PERGUNTALT_CHAMA - Undefined
    Unknown UF_TECLADONUMERICO_CHAMA - Undefined
    Unknown FECHA - Undefined
    Unknown UF_ATENDIMENTO_NOVAVENDA - Undefined
    Unknown UF_GERAIS_ACTGRELHA - Undefined
    Unknown UF_ATENDIMENTO_DEVOLVER - Undefined
    Unknown UF_ATENDIMENTO_ADICIONALINHAFI - Undefined
    Unknown UF_ATENDIMENTO_ACTREF - Undefined
    Unknown UF_INSERT_FI_TRANS_INFO_SEMINFO - Undefined
    Unknown UF_ATENDIMENTO_FIILIQ - Undefined
    Unknown UF_ATENDIMENTO_EVENTOFI - Undefined
    Unknown UF_ATENDIMENTO_DADOSST - Undefined
    Unknown UF_ATENDIMENTO_INFOTOTAIS - Undefined
    Unknown UF_ATENDIMENTO_VERIFICACOMPART - Undefined
    Unknown UF_ATENDIMENTO_VERIFICASUSPENSA - Undefined
    Unknown UF_ATENDIMENTO_SUSPENDEVENDA - Undefined
    Unknown UF_ATENDIMENTO_APAGALINHA - Undefined
    Unknown ASTR - Undefined
    Unknown UF_TECLADOALPHA_CHAMA - Undefined
    Unknown UF_REGVENDAS_REGVENDASSEL - Undefined

Visual Class Library c:\documentos\projecto\ltserpfox\funcoes\gerais\menu.vcx has the following errors:
    Unknown UF_GERAIS_GETPARAMETER - Undefined
    Unknown ASTR - Undefined
    Unknown UF_STARTUP_RECOVERAPPS - Undefined
    Proc./Func. UF_STARTUP_STARTTERMINAL - Undefined
    Unknown UF_GERAIS_REDRAWOPCOES - Undefined
    Unknown GETUMVALOR - Undefined
    Unknown UF_GERAIS_KEYSTROKES - Undefined

Visual Class Library c:\documentos\projecto\ltserpfox\funcoes\gerais\filtros.vcx has the following errors:
    Unknown UF_GERAIS_GETROWHEIGHT - Undefined
    Unknown UF_VALORESCOMBO_CHAMA - Undefined
    Unknown FECHA - Undefined
    Unknown UF_GERAIS_ACTGRELHA - Undefined
    Unknown UF_GERAIS_CLICKEFFECT - Undefined
    Unknown UF_ANALISES_ALTERAGRUPO - Undefined
    Unknown UF_FAMILIAS_CHAMA - Undefined
    Unknown UF_GERAIS_FILLDATACOMBOBOX - Undefined
    Unknown UF_FILTRADCI_CHAMA - Undefined
    Unknown UF_GERAIS_STAMP - Undefined
    Unknown UF_GERAIS_INSERT_TEMPFILTERS - Undefined

Program c:\documentos\projecto\ltserpfox\funcoes\reservas_clientes\reservas.prg has the following errors:
    Unknown UF_GERAIS_GETPARAMETER - Undefined
    Unknown UF_GERAIS_GETPARAMETER_SITE - Undefined
    Unknown UF_PERGUNTALT_CHAMA - Undefined
    Unknown UF_TECLADONUMERICO_CHAMA - Undefined
    Unknown UF_GERAIS_ORDENAGRELHA - Undefined
    Unknown FECHA - Undefined
    Unknown UF_ATENDIMENTO_NOVAVENDA - Undefined
    Unknown UF_GERAIS_ACTGRELHA - Undefined
    Unknown UF_ATENDIMENTO_ADICIONALINHAFI - Undefined
    Unknown UF_ATENDIMENTO_ACTREF - Undefined
    Unknown UF_ATENDIMENTO_FIILIQ - Undefined
    Unknown UF_ATENDIMENTO_EVENTOFI - Undefined
    Unknown UF_ATENDIMENTO_DADOSST - Undefined
    Unknown UF_ATENDIMENTO_INFOTOTAIS - Undefined
    Unknown UF_ATENDIMENTO_VERIFICACOMPART - Undefined
    Unknown UF_ATENDIMENTO_APAGALINHA - Undefined
    Unknown ASTR - Undefined
    Unknown UF_GERAIS_STAMP - Undefined
    Proc./Func. LISTARESERVAS - Undefined
    Unknown UF_DOCUMENTOS_PREPARAENVIOSMSRESERVA - Undefined
    Unknown UF_GERAIS_GETUMVALOR - Undefined
    Unknown UF_IMPRIMIRGERAIS_SENDPRINTER_TALAO - Undefined
    Unknown UF_GERAIS_VALIDAPERMUSER - Undefined
    Unknown UF_GERAIS_GRAVAULTREGISTO - Undefined
    Unknown UF_ATENDIMENTO_VERIFICALORDEM - Undefined
    Unknown UF_ATENDIMENTO_LIMPADEMTOTAL - Undefined
    Unknown UF_GERAIS_TRATAPLICASSQL - Undefined
    Unknown UF_GERAIS_SETIMPRESSORAPOS - Undefined
    Unknown UF_GERAIS_CRIARCABECALHOPOS - Undefined
    Unknown UF_GERAIS_TEXTOVERMPOS - Undefined
    Unknown UF_GERAIS_RESETCORPOS - Undefined
    Unknown UF_GERAIS_GETDATE - Undefined
    Unknown UF_GERAIS_SEPARADORPOS - Undefined
    Unknown UF_GERAIS_TEXTOLJPOS - Undefined
    Unknown UF_GERAIS_TEXTOCJPOS - Undefined
    Unknown UF_GERAIS_FEEDCUTPOS - Undefined
    Unknown UF_GERAIS_GETTABELAIVA - Undefined
    Unknown UF_ATENDIMENTO_VALORESDEFEITO - Undefined
    Unknown UF_RECRESERVA_CHAMA - Undefined
    Unknown UF_PAGAMENTO_PREPARACABVENDAS - Undefined
    Unknown UF_ATENDIMENTO_CRIADADOSPSICO - Undefined
    Unknown UF_ATENDIMENTO_RECEITASEFETIVAR - Undefined
    Unknown UF_RECRESERVA_SEL_AUTO - Undefined

Visual Class Library c:\documentos\projecto\ltserpfox\funcoes\gerais\dadosuser.vcx has the following errors:
    Unknown UF_GERAIS_GETPARAMETER - Undefined
    Unknown UF_PAINELCENTRAL_MOSTRAOPCOES - Undefined

