Form c:\documentos\projecto\ltserpfox\funcoes\fichaempresa\fichaempresa.scx has the following errors:
    Unknown UF_GERAIS_FORMBACKCOLOR - Undefined
    Unknown UF_GERAIS_MAXIMIZARJANELA - Undefined
    Unknown UF_GERAIS_ATALHOS - Undefined
    Unknown ASTR - Undefined
    Unknown UF_GERAIS_SHAPEBACKCOLOR - Undefined
    Unknown UF_GERAIS_APLICALANGUAGE - Undefined
    Unknown UF_GETDATE_CHAMA - Undefined
    Unknown UF_GERAIS_ACTGRELHA - Undefined
    Unknown UF_PERGUNTALT_CHAMA - Undefined
    Unknown UF_VALORESCOMBO_CHAMA - Undefined
    Unknown FECHA - Undefined
    Unknown UF_GERAIS_GETROWHEIGHT - Undefined
    Unknown UF_GERAIS_GETHEADERHEIGHT - Undefined
    Unknown UF_GERAIS_NAVEGAPGFRAME - Undefined

Program c:\documentos\projecto\ltserpfox\funcoes\fichaempresa\fichaempresa.prg has the following errors:
    Unknown UF_GERAIS_ACTGRELHA - Undefined
    Unknown UF_PERGUNTALT_CHAMA - Undefined
    Unknown UF_VALORESCOMBO_CHAMA - Undefined
    Unknown FECHA - Undefined
    Proc./Func. PESQEMPRESA - Undefined
    Unknown UF_GERAIS_VALIDAPERMUSER - Undefined

Visual Class Library c:\documentos\projecto\ltserpfox\funcoes\gerais\menu.vcx has the following errors:
    Unknown ASTR - Undefined
    Unknown UF_STARTUP_RECOVERAPPS - Undefined
    Proc./Func. UF_STARTUP_STARTTERMINAL - Undefined
    Unknown UF_GERAIS_GETPARAMETER - Undefined
    Unknown UF_GERAIS_REDRAWOPCOES - Undefined
    Unknown GETUMVALOR - Undefined
    Unknown UF_GERAIS_KEYSTROKES - Undefined

Visual Class Library c:\documentos\projecto\ltserpfox\funcoes\gerais\filtros.vcx has the following errors:
    Unknown UF_GERAIS_ACTGRELHA - Undefined
    Unknown UF_VALORESCOMBO_CHAMA - Undefined
    Unknown FECHA - Undefined
    Unknown UF_GERAIS_GETROWHEIGHT - Undefined
    Unknown UF_GERAIS_CLICKEFFECT - Undefined
    Unknown UF_ANALISES_ALTERAGRUPO - Undefined
    Unknown UF_FAMILIAS_CHAMA - Undefined
    Unknown UF_GERAIS_FILLDATACOMBOBOX - Undefined
    Unknown UF_FILTRADCI_CHAMA - Undefined
    Unknown UF_GERAIS_STAMP - Undefined
    Unknown UF_GERAIS_INSERT_TEMPFILTERS - Undefined

Form c:\documentos\projecto\ltserpfox\funcoes\fichaempresa\pesqempresa.scx has the following errors:
    Unknown UF_GERAIS_FORMBACKCOLOR - Undefined
    Unknown UF_GERAIS_MAXIMIZARJANELA - Undefined
    Unknown UF_GERAIS_ATALHOS - Undefined
    Unknown UF_GERAIS_SHAPEBACKCOLOR - Undefined

Program c:\documentos\projecto\ltserpfox\funcoes\fichaempresa\pesqempresa.prg has the following errors:
    Unknown UF_GERAIS_ACTGRELHA - Undefined
    Unknown UF_PERGUNTALT_CHAMA - Undefined
    Unknown UF_GERAIS_VALIDAPERMUSER - Undefined

Visual Class Library c:\documentos\projecto\ltserpfox\funcoes\gerais\dadosuser.vcx has the following errors:
    Unknown UF_PAINELCENTRAL_MOSTRAOPCOES - Undefined

Visual Class Library c:\documentos\projecto\ltserpfox\funcoes\gerais\titlebar.vcx has the following errors:
    Unknown UF_GERAIS_MAXIMIZARJANELA - Undefined
    Unknown UF_GERAIS_DIMINUIRJANELA - Undefined
    Unknown UF_GERAIS_MINIMIZARJANELA - Undefined
    Unknown UF_GERAIS_COMPSTR - Undefined
    Unknown UF_GERAIS_FECHARJANELA - Undefined

