Program c:\documentos\projecto\ltserpfox\funcoes\psicobenzo\psicobenzo.prg has the following errors:
    Unknown UF_GERAIS_VALIDAPERMUSER - Undefined
    Unknown UF_PERGUNTALT_CHAMA - Undefined
    Unknown REGUA - Undefined
    Unknown UF_GERAIS_ADDCONNECTION - Undefined
    Unknown UF_GERAIS_ACTGRELHA - Undefined
    Unknown UF_GERAIS_CHAMAREPORT - Undefined
    Unknown FECHA - Undefined

Form c:\documentos\projecto\ltserpfox\funcoes\psicobenzo\psicobenzo.scx has the following errors:
    Unknown UF_GERAIS_FORMBACKCOLOR - Undefined
    Unknown UF_GERAIS_ATALHOS - Undefined
    Unknown UF_GERAIS_SHAPEBACKCOLOR - Undefined
    Unknown UF_GERAIS_NAVEGAPGFRAME - Undefined
    Unknown UF_GERAIS_GETDATE - Undefined
    Unknown UF_GETDATE_CHAMA - Undefined

Visual Class Library c:\documentos\projecto\ltserpfox\funcoes\gerais\menu.vcx has the following errors:
    Unknown UF_STARTUP_RECOVERAPPS - Undefined
    Proc./Func. UF_STARTUP_STARTTERMINAL - Undefined
    Unknown UF_GERAIS_GETPARAMETER - Undefined
    Unknown UF_GERAIS_REDRAWOPCOES - Undefined
    Unknown ASTR - Undefined
    Unknown GETUMVALOR - Undefined
    Unknown UF_GERAIS_KEYSTROKES - Undefined

Visual Class Library c:\documentos\projecto\ltserpfox\funcoes\gerais\filtros.vcx has the following errors:
    Unknown UF_GERAIS_ACTGRELHA - Undefined
    Unknown FECHA - Undefined
    Unknown UF_GERAIS_CLICKEFFECT - Undefined
    Unknown UF_GERAIS_GETROWHEIGHT - Undefined
    Unknown UF_ANALISES_ALTERAGRUPO - Undefined
    Unknown UF_VALORESCOMBO_CHAMA - Undefined
    Unknown UF_FAMILIAS_CHAMA - Undefined
    Unknown UF_GERAIS_FILLDATACOMBOBOX - Undefined
    Unknown UF_FILTRADCI_CHAMA - Undefined
    Unknown UF_GERAIS_STAMP - Undefined
    Unknown UF_GERAIS_INSERT_TEMPFILTERS - Undefined

Visual Class Library c:\documentos\projecto\ltserpfox\funcoes\gerais\dadosuser.vcx has the following errors:
    Unknown UF_GERAIS_GETPARAMETER - Undefined
    Unknown UF_PAINELCENTRAL_MOSTRAOPCOES - Undefined

