{
		"access_token": "sl.BYaffkvN0OuHCksyTBO-czEUMk2XropoB8kyBJCCpLAG_jZk_aGsvG7YMRq6XcsyayCUNNJ8-J3pBO4Jc4bnlBbU3pIN1IkqPHfFcJi67I9Rtp9OsJZ83AnpateJ70L-12a-4xbSHMFz",
		"refresh_token": "TD7-9Q4qbyEAAAAAAAAAAXXNhsrjo3_RUWUzTPe2r1IFaruDZ83KShNzwF7670uc", 
		"account_id": "dbid:AAAfVZFE5UkZh26rIH5hicR4Z73U2d0GvSY",
		"app_key":"mb5abvn7c9r6mib",
		"app_secret":"7fo6d82y03vqoas"
}