Form c:\...\documentos\projecto\ltserpfox\funcoes\faturacao\dadoscliente.scx has the following errors:
    Unknown UF_GERAIS_ATALHOS - Undefined
    Unknown UF_GERAIS_FORMBACKCOLOR - Undefined
    Unknown UF_GERAIS_MAXIMIZARJANELA - Undefined
    Unknown UF_GERAIS_SHAPEBACKCOLOR - Undefined

Form c:\...\faturacao\documentos\projecto\ltserpfox\funcoes\faturacao\facturacao.scx has the following errors:
    Unknown UF_GERAIS_ATALHOS - Undefined
    Unknown UF_GERAIS_FORMBACKCOLOR - Undefined
    Unknown UF_GERAIS_MAXIMIZARJANELA - Undefined
    Unknown UF_GERAIS_SHAPEBACKCOLOR - Undefined
    Unknown UF_GERAIS_GETPARAMETER - Undefined
    Unknown UF_GERAIS_GETPARAMETER_SITE - Undefined
    Unknown UF_ATENDIMENTO_ADICIONALINHAFI - Undefined
    Unknown UF_CHK_NOVA_VERSAO - Undefined
    Unknown UF_UTENTES_CHAMA - Undefined
    Unknown UF_TECLADONUMERICO_CHAMA - Undefined
    Unknown FECHA - Undefined
    Unknown UF_PERGUNTALT_CHAMA - Undefined
    Unknown UF_GETDATE_CHAMA - Undefined
    Unknown UF_DOCUMENTOS_SELDATAVALIDADEDOC - Undefined
    Unknown UF_DOCUMENTOS_ACTUALIZADATAFINALLINHAS - Undefined
    Unknown UF_ATENDIMENTO_VALIDAPLANOSEMENTIDADEEFR - Undefined
    Unknown UF_VALORESCOMBO_CHAMA - Undefined
    Unknown UF_GERAIS_ACTGRELHA - Undefined
    Unknown UF_ATENDIMENTO_ACTTOTAISFT - Undefined
    Unknown UF_GERAIS_GETUMVALOR - Undefined
    Unknown UF_GERAIS_CHECKREGEX - Undefined
    Unknown UF_TECLADOALPHA_CHAMA - Undefined
    Unknown UF_ATENDIMENTO_PREENCHE_CODUNICOEMBALAGEMFI - Undefined
    Unknown UF_ATENDIMENTO_ACTVALORESFI - Undefined
    Unknown UF_GERAIS_GETDATE - Undefined
    Unknown UF_GERAIS_TRATAVALIDADELOTELINHAS - Undefined
    Unknown UF_PESQUTENTES_CHAMA - Undefined
    Unknown UF_PESQUTENTES_CARREGADADOS - Undefined
    Unknown UF_GERAIS_NAVEGAPGFRAME - Undefined
    Unknown UF_EXCECAOMED_PREENCHECAMPOSLIVRES - Undefined
    Unknown UF_ATENDIMENTO_TMRCONSULTADEM - Undefined

Form c:\...\documentos\projecto\ltserpfox\funcoes\faturacao\importarfact.scx has the following errors:
    Unknown UF_GERAIS_ATALHOS - Undefined
    Unknown UF_GERAIS_FORMBACKCOLOR - Undefined
    Unknown UF_GERAIS_MAXIMIZARJANELA - Undefined
    Unknown UF_GERAIS_SHAPEBACKCOLOR - Undefined
    Unknown UF_GERAIS_GETPARAMETER - Undefined
    Unknown UF_GERAIS_GETPARAMETER_SITE - Undefined
    Unknown FECHA - Undefined
    Unknown UF_PERGUNTALT_CHAMA - Undefined
    Unknown UF_GETDATE_CHAMA - Undefined
    Unknown UF_VALORESCOMBO_CHAMA - Undefined
    Unknown UF_GERAIS_ACTGRELHA - Undefined
    Unknown UF_GERAIS_GETDATE - Undefined
    Unknown UF_GERAIS_NAVEGAPGFRAME - Undefined
    Unknown REGUA - Undefined
    Unknown UF_GERAIS_GETROWHEIGHT - Undefined
    Unknown UF_GERAIS_GETHEADERHEIGHT - Undefined
    Unknown UF_IMPORTARDOC_SELTODOSDOCS - Undefined
    Unknown UF_GERAIS_CHECKVALIDADEFATURA - Undefined
    Unknown UF_GERAIS_ORDENAGRELHA - Undefined
    Unknown UF_IMPORTARDOC_SELTODASLINHAS - Undefined

Form c:\...\faturacao\documentos\projecto\ltserpfox\funcoes\faturacao\mvr.scx has the following errors:
    Unknown UF_GERAIS_ATALHOS - Undefined
    Unknown UF_GERAIS_FORMBACKCOLOR - Undefined
    Unknown UF_GERAIS_MAXIMIZARJANELA - Undefined
    Unknown UF_GERAIS_SHAPEBACKCOLOR - Undefined

Form c:\...\faturacao\documentos\projecto\ltserpfox\funcoes\faturacao\pesqfact.scx has the following errors:
    Unknown UF_GERAIS_ATALHOS - Undefined
    Unknown UF_GERAIS_FORMBACKCOLOR - Undefined
    Unknown UF_GERAIS_MAXIMIZARJANELA - Undefined
    Unknown UF_GERAIS_SHAPEBACKCOLOR - Undefined
    Unknown UF_GERAIS_GETPARAMETER_SITE - Undefined
    Unknown FECHA - Undefined
    Unknown UF_PERGUNTALT_CHAMA - Undefined
    Unknown UF_GETDATE_CHAMA - Undefined
    Unknown UF_VALORESCOMBO_CHAMA - Undefined
    Unknown UF_GERAIS_ACTGRELHA - Undefined
    Unknown UF_GERAIS_GETDATE - Undefined
    Unknown UF_GERAIS_GETROWHEIGHT - Undefined
    Unknown UF_GERAIS_GETHEADERHEIGHT - Undefined
    Unknown UF_GERAIS_ORDENAGRELHA - Undefined
    Unknown UF_GERAIS_VALIDAPERMUSER - Undefined
    Unknown UF_GERAIS_COMPSTR - Undefined
    Unknown ASTR - Undefined

Form c:\...\faturacao\documentos\projecto\ltserpfox\funcoes\faturacao\pesqlote.scx has the following errors:
    Unknown UF_GERAIS_ATALHOS - Undefined
    Unknown UF_GERAIS_FORMBACKCOLOR - Undefined
    Unknown UF_GERAIS_MAXIMIZARJANELA - Undefined
    Unknown UF_GERAIS_SHAPEBACKCOLOR - Undefined
    Unknown UF_GERAIS_GETROWHEIGHT - Undefined
    Unknown UF_GERAIS_GETHEADERHEIGHT - Undefined

Form c:\...\faturacao\documentos\projecto\ltserpfox\funcoes\faturacao\reimppos.scx has the following errors:
    Unknown UF_GERAIS_ATALHOS - Undefined
    Unknown UF_GERAIS_FORMBACKCOLOR - Undefined
    Unknown UF_GERAIS_MAXIMIZARJANELA - Undefined
    Unknown UF_GERAIS_SHAPEBACKCOLOR - Undefined
    Unknown UF_GETDATE_CHAMA - Undefined
    Unknown UF_VALORESCOMBO_CHAMA - Undefined
    Unknown UF_GERAIS_GETROWHEIGHT - Undefined
    Unknown UF_GERAIS_GETHEADERHEIGHT - Undefined

Program c:\documentos\projecto\ltserpfox\funcoes\faturacao\progs\dadoscliente.prg has the following errors:
    Unknown FECHA - Undefined
    Unknown UF_PERGUNTALT_CHAMA - Undefined
    Unknown UF_GERAIS_ACTGRELHA - Undefined

Program c:\documentos\projecto\ltserpfox\funcoes\faturacao\progs\facturacao.prg has the following errors:
    Unknown UF_GERAIS_GETPARAMETER - Undefined
    Unknown UF_GERAIS_GETPARAMETER_SITE - Undefined
    Unknown UF_ATENDIMENTO_ADICIONALINHAFI - Undefined
    Unknown UF_CHK_NOVA_VERSAO - Undefined
    Unknown UF_UTENTES_CHAMA - Undefined
    Unknown UF_TECLADONUMERICO_CHAMA - Undefined
    Unknown FECHA - Undefined
    Unknown UF_PERGUNTALT_CHAMA - Undefined
    Unknown UF_VALORESCOMBO_CHAMA - Undefined
    Unknown UF_GERAIS_ACTGRELHA - Undefined
    Unknown UF_ATENDIMENTO_ACTTOTAISFT - Undefined
    Unknown UF_GERAIS_GETUMVALOR - Undefined
    Unknown UF_GERAIS_CHECKREGEX - Undefined
    Unknown UF_TECLADOALPHA_CHAMA - Undefined
    Unknown UF_ATENDIMENTO_PREENCHE_CODUNICOEMBALAGEMFI - Undefined
    Unknown UF_ATENDIMENTO_ACTVALORESFI - Undefined
    Unknown UF_GERAIS_GETDATE - Undefined
    Unknown UF_PESQUTENTES_CHAMA - Undefined
    Unknown UF_EXCECAOMED_PREENCHECAMPOSLIVRES - Undefined
    Unknown REGUA - Undefined
    Unknown UF_GERAIS_VALIDAPERMUSER - Undefined
    Unknown UF_GERAIS_COMPSTR - Undefined
    Unknown ASTR - Undefined
    Proc./Func. PESQFACT - Undefined
    Proc./Func. REIMPPOS - Undefined
    Proc./Func. DADOSCLIENTE - Undefined
    Proc./Func. MVR - Undefined
    Proc./Func. PESQLOTE - Undefined
    Proc./Func. FATURACAOPAGEXTERNO - Undefined
    Unknown UF_DIPLOMAS_CHAMA - Undefined
    Unknown UF_ATENDIMENTO_ALTERAPVP - Undefined
    Unknown UF_ATENDIMENTO_ACTREF - Undefined
    Unknown UF_PESQSTOCKS_CHAMA - Undefined
    Unknown UF_ATENDIMENTO_FIILIQ - Undefined
    Unknown UF_STOCKS_CHAMA - Undefined
    Unknown UF_GERAIS_GETTABELAIVA - Undefined
    Unknown UF_ORIGENSDESTINOS_CHAMA - Undefined
    Unknown UF_ATENDIMENTO_VALIDADADOSPRINCIPIOACTIVO - Undefined
    Unknown UF_LIGACOES_ADDCONNECTION - Undefined
    Unknown UF_PESQUTENTES_SAIR - Undefined
    Unknown UF_GERAIS_DEVOLVEULTREGISTO - Undefined
    Unknown UF_GERAIS_ADDCONNECTION - Undefined
    Unknown UF_GERAIS_GET_EFRID - Undefined
    Unknown UF_ATENDIMENTO_MOVERLINHAS - Undefined
    Unknown UF_VACINACAO_CHAMA - Undefined
    Unknown UF_ATENDIMENTO_RECEITASANULAR - Undefined
    Unknown UF_COMPART_ANULA - Undefined
    Unknown UF_ATENDIMENTO_PAINEL_EXCECAO - Undefined
    Unknown UF_ATENDIMENTO_TRANSFORMAVALEDC - Undefined
    Unknown UF_ATENDIMENTO_VALIDALOTESVET - Undefined
    Unknown UF_PESQDOCUMENTOSCLIENTES_VALIDAPLFCL - Undefined
    Unknown UF_COMUNICASINAVE_VALIDANUMERORECEITASINAVE - Undefined
    Unknown UF_GERAIS_RETORNATIPODISPENSAELETRONICA - Undefined
    Unknown UF_ATENDIMENTO_PERGUNTASERECEITARSP - Undefined
    Unknown UF_GERAIS_VALIDA_PASSWORD_ADMIN - Undefined
    Unknown UF_GESTAOCAIXAS_CHAMA - Undefined
    Unknown UF_MRPAGAMENTO_CHAMA - Undefined
    Unknown UF_PAGAMENTO_SINCRONIZAFICOMFI2 - Undefined
    Unknown UF_GERAIS_REGISTAOCORRENCIA - Undefined
    Unknown UF_PAGAMENTO_GRAVARVENDAFT2 - Undefined
    Unknown UF_GERAIS_TRATAPLICASSQL - Undefined
    Unknown UF_PAGAMENTO_GRAVARVENDAFT - Undefined
    Unknown UF_PAGAMENTO_GRAVARVENDAFI - Undefined
    Unknown UF_PAGAMENTO_GRAVARCERT - Undefined
    Unknown UF_RESERVAS_ABATER - Undefined
    Unknown UF_PAGAMENTO_GRAVARDADOSPSICO - Undefined
    Unknown UF_RECEITUARIO_VERIFICALOTE - Undefined
    Unknown UF_PAGAMENTO_ACTDATAULTVENDACL - Undefined
    Unknown UF_GERAIS_GRAVAULTREGISTO - Undefined
    Unknown UF_FACTENTIDADESCLINICA_ACTUALIZAMARCACOES - Undefined
    Unknown UF_ARQUIVODIGITAL_TALOESLT - Undefined
    Unknown UF_ARQUIVODIGITAL_EMITIRPDFSTALAO - Undefined
    Unknown UF_IMPRIMIRGERAIS_CHAMA - Undefined
    Unknown UF_IMPRIMIRGERAIS_GRAVAR - Undefined
    Unknown UF_IMPRIMIRGERAIS_SAIR - Undefined
    Unknown UF_IMPRIMIRPOS_IMPRECTALAOCOMUM_TALAOVERSO - Undefined
    Unknown UF_IMPRIMIRPOS_IMPREC - Undefined
    Unknown UF_ATENDIMENTO_MOSTRASINAVE - Undefined
    Unknown UF_GERAIS_VERIFYINTERNET - Undefined
    Unknown UF_GERAIS_STAMP - Undefined
    Unknown UF_FECHOAUTOMATICODOC_CHAMA - Undefined
    Unknown UF_GERAIS_NEWDOCNR - Undefined
    Unknown UF_UTENTES_NOVO - Undefined
    Unknown UF_GERAIS_RETORNA_CAMPOS_DATAMATRIX - Undefined
    Unknown UF_INSERT_FI_TRANS_INFO_SEMINFO - Undefined
    Unknown UF_ATENDIMENTO_VALIDASEEPISODIOPEHMFACTURADO - Undefined
    Unknown UF_GERAIS_VARIFICACREDITOEPALAVRAPASSE - Undefined
    Unknown UF_ATENDIMENTO_GERANRATENDIMENTO - Undefined
    Unknown UF_PAGAMENTO_CONTADORPSICOBENZO - Undefined
    Unknown UF_ATENDIMENTO_VALIDACAORECEITASDEM - Undefined
    Unknown UF_INFOVENDA_VALIDA - Undefined
    Unknown UF_PAGAMENTO_VALIDASEEFECTIVADO - Undefined
    Unknown UF_COMPART_EFETIVA - Undefined
    Unknown UF_ATENDIMENTO_RECEITASEFETIVAR - Undefined
    Unknown UF_GERAIS_VALIDACARTAOENTIDADECOMPART - Undefined
    Unknown UF_GERAIS_GETIDADE - Undefined
    Unknown UF_SELPLANOCOMP_CHAMA - Undefined
    Unknown UF_ATENDIMENTO_VALIDATIPOSNSEXTPORPLANO - Undefined
    Unknown UF_ATENDIMENTO_COMPARTICIPAPROD - Undefined
    Unknown UF_EXCECAOMED_SAIR - Undefined
    Unknown UF_CORRIGIRRECEITA_CHAMA - Undefined
    Unknown UF_CORRIGIRRECEITA_ELIMINARCONTADORESPAR - Undefined
    Unknown UF_ATENDIMENTO_DEM - Undefined
    Unknown UF_CONSULTADISPENSA_CHAMA - Undefined
    Unknown UF_CONFENCOMENDAS_CHAMA - Undefined
    Unknown UF_GERAIS_XLS2CURSOR - Undefined
    Unknown UF_ALTERAMEIOSPAG_CHAMA - Undefined
    Unknown UF_DADOSDEM_CHAMA - Undefined
    Unknown UF_ATENDIMENTO_DEVOLVEDADOSBONUSCOMPART - Undefined
    Unknown UF_RECEITUARIO_MAKEPRECOS - Undefined
    Unknown UF_FACTURACAOENTIDADES_VALIDASEENTIDADECERTIFICAVEL - Undefined
    Unknown UF_FACTURACAOENTIDADES_DEVOLVENOMEJAVAFACTURACAOELETRONICA - Undefined
    Unknown UF_GUARDA_PDF_FOLDER - Undefined
    Unknown UF_GERAIS_RETORNA_CAMPOS_DATAMATRIX_SQL - Undefined
    Unknown UF_GERAIS_RETORNAAPENASALPHANUMERICOS - Undefined
    Unknown UF_GERAIS_GETFROMSTRING - Undefined
    Unknown UF_GERAIS_REGISTAERROLOG - Undefined
    Unknown UF_EMBAL_CONFEREREFERENCIA - Undefined
    Unknown UF_GERAIS_POSICIONAFI2 - Undefined
    Unknown UF_PAGAMENTO_ACTUALIZACOMPARTEXTERNA - Undefined
    Unknown UF_PAGAMENTO_RETORNACLIENTEADESCONTARVALORCARTAO - Undefined
    Unknown UF_GERACURSORRECEITAVALIDAR - Undefined
    Unknown UF_COMUNICASINAVE_CHAMA - Undefined
    Unknown UF_COMPART_ENVIA - Undefined
    Unknown UF_GERAIS_CREATEDIR - Undefined
    Unknown UF_VALIDA_INFO_CAIXAS_VERIFICACAO - Undefined
    Unknown UF_ATENDIMENTO_VALIDA_ESTADO_DATAMATRIX - Undefined
    Unknown UF_ATENDIMENTO_DISPENSEPACKVERIFY - Undefined
    Unknown UF_ATENDIMENTO_UNDODISPENSESINGLEPACK - Undefined
    Unknown UF_VALIDA_INFO_CAIXAS_DISPENSA - Undefined
    Unknown UF_PAGAMENTO_GRAVARREG_MIXED_BULK_PEND - Undefined
    Unknown UF_GERAIS_CURSORWKCOLS - Undefined

Program c:\documentos\projecto\ltserpfox\funcoes\faturacao\progs\importarfact.prg has the following errors:
    Unknown UF_GERAIS_GETPARAMETER - Undefined
    Unknown FECHA - Undefined
    Unknown UF_PERGUNTALT_CHAMA - Undefined
    Unknown UF_GERAIS_ACTGRELHA - Undefined
    Unknown UF_ATENDIMENTO_ACTTOTAISFT - Undefined
    Unknown UF_GERAIS_GETUMVALOR - Undefined
    Unknown UF_ATENDIMENTO_ACTVALORESFI - Undefined
    Unknown UF_GERAIS_GETDATE - Undefined
    Unknown REGUA - Undefined
    Unknown ASTR - Undefined
    Unknown UF_ATENDIMENTO_FIILIQ - Undefined
    Unknown UF_GERAIS_GETTABELAIVA - Undefined
    Unknown UF_GERAIS_STAMP - Undefined
    Unknown UF_INSERT_FI_TRANS_INFO_SEMINFO - Undefined
    Unknown UF_GERAIS_GETREFFROMQR - Undefined

Program c:\documentos\projecto\ltserpfox\funcoes\faturacao\progs\mvr.prg has the following errors:
    Unknown FECHA - Undefined
    Unknown UF_PERGUNTALT_CHAMA - Undefined
    Unknown UF_GERAIS_ACTGRELHA - Undefined
    Unknown UF_ATENDIMENTO_ACTTOTAISFT - Undefined
    Unknown ASTR - Undefined
    Unknown UF_ATENDIMENTO_FIILIQ - Undefined
    Unknown UF_GERAIS_REGISTAOCORRENCIA - Undefined
    Unknown UF_RECEITUARIO_MAKEPRECOS - Undefined

Program c:\documentos\projecto\ltserpfox\funcoes\faturacao\progs\pesqfact.prg has the following errors:
    Unknown UF_GERAIS_GETPARAMETER - Undefined
    Unknown FECHA - Undefined
    Unknown UF_PERGUNTALT_CHAMA - Undefined
    Unknown UF_VALORESCOMBO_CHAMA - Undefined
    Unknown UF_GERAIS_ACTGRELHA - Undefined
    Unknown UF_GERAIS_GETUMVALOR - Undefined
    Unknown UF_GERAIS_GETDATE - Undefined
    Unknown REGUA - Undefined
    Unknown UF_GERAIS_VALIDAPERMUSER - Undefined
    Unknown ASTR - Undefined
    Unknown UF_IMPRIMIRGERAIS_CHAMA - Undefined
    Unknown UF_GERAIS_STAMP - Undefined
    Unknown UF_GERAIS_CREATEDIR - Undefined
    Unknown UF_GERAIS_GETREFFROMQR - Undefined
    Unknown UF_GERAIS_CHAMAREPORT - Undefined
    Unknown UF_EXPORTSYNT_CHAMA - Undefined
    Unknown UF_GERAIS_REMOVECHARESPECIAL - Undefined
    Unknown UF_SEND_FILE_FTP - Undefined
    Unknown UF_BROWLIST_CHAMA - Undefined
    Unknown UF_GERAIS_GETFTFROMQR - Undefined
    Unknown UF_IMPRIMIRGERAISBULK_CHAMA - Undefined
    Unknown UF_GERAIS_SENDMAIL_BULK - Undefined

Program c:\documentos\projecto\ltserpfox\funcoes\faturacao\progs\pesqlote.prg has the following errors:
    Unknown FECHA - Undefined
    Unknown UF_PERGUNTALT_CHAMA - Undefined
    Unknown UF_GERAIS_ACTGRELHA - Undefined
    Unknown UF_ATENDIMENTO_ACTTOTAISFT - Undefined
    Unknown UF_ATENDIMENTO_FIILIQ - Undefined

Program c:\documentos\projecto\ltserpfox\funcoes\faturacao\progs\reimppos.prg has the following errors:
    Unknown UF_GERAIS_GETPARAMETER - Undefined
    Unknown FECHA - Undefined
    Unknown UF_PERGUNTALT_CHAMA - Undefined
    Unknown UF_GERAIS_ACTGRELHA - Undefined
    Unknown UF_GERAIS_GETDATE - Undefined
    Unknown REGUA - Undefined
    Unknown ASTR - Undefined
    Unknown UF_GERAIS_GETREFFROMQR - Undefined

Visual Class Library c:\...\documentos\projecto\ltserpfox\funcoes\gerais\disponibilidades.vcx has the following errors:
    Unknown UF_PERGUNTALT_CHAMA - Undefined
    Unknown UF_GERAIS_ACTGRELHA - Undefined
    Unknown UF_GERAIS_GETROWHEIGHT - Undefined
    Unknown UF_GERAIS_GETHEADERHEIGHT - Undefined
    Unknown UF_GERAIS_APLICALANGUAGE - Undefined

Visual Class Library c:\...\funcoes\faturacao\documentos\projecto\ltserpfox\funcoes\gerais\dia.vcx has the following errors:
    Unknown UF_MARCACOES_APLICADIA - Undefined

Visual Class Library c:\...\documentos\projecto\ltserpfox\funcoes\gerais\class_tecladovirtual.vcx has the following errors:
    Unknown UF_GERAIS_CLICKEFFECT - Undefined
    Unknown UF_PAGAMENTO_RESETVALORESMODOPAG - Undefined
    Unknown UF_ALTERAMEIOSPAG_RESETVALORESMODOPAG - Undefined

Visual Class Library c:\...\faturacao\documentos\projecto\ltserpfox\funcoes\gerais\filtros.vcx has the following errors:
    Unknown FECHA - Undefined
    Unknown UF_VALORESCOMBO_CHAMA - Undefined
    Unknown UF_GERAIS_ACTGRELHA - Undefined
    Unknown UF_GERAIS_GETROWHEIGHT - Undefined
    Unknown UF_GERAIS_CLICKEFFECT - Undefined
    Unknown UF_ANALISES_ALTERAGRUPO - Undefined
    Unknown UF_FAMILIAS_CHAMA - Undefined
    Unknown UF_GERAIS_FILLDATACOMBOBOX - Undefined
    Unknown UF_FILTRADCI_CHAMA - Undefined

Visual Class Library c:\...\faturacao\documentos\projecto\ltserpfox\funcoes\gerais\dadosuser.vcx has the following errors:
    Unknown UF_GERAIS_GETPARAMETER - Undefined
    Unknown UF_PAINELCENTRAL_MOSTRAOPCOES - Undefined

Form c:\...\documentos\projecto\ltserpfox\funcoes\faturacao\faturacaopagexterno.scx has the following errors:
    Unknown UF_GERAIS_FORMBACKCOLOR - Undefined
    Unknown UF_GERAIS_MAXIMIZARJANELA - Undefined
    Unknown UF_GERAIS_SHAPEBACKCOLOR - Undefined
    Unknown UF_GERAIS_GETPARAMETER_SITE - Undefined
    Unknown FECHA - Undefined
    Unknown UF_GETDATE_CHAMA - Undefined
    Unknown UF_VALORESCOMBO_CHAMA - Undefined
    Unknown UF_GERAIS_ACTGRELHA - Undefined
    Unknown UF_GERAIS_GETDATE - Undefined
    Unknown UF_GERAIS_GETROWHEIGHT - Undefined
    Unknown UF_GERAIS_GETHEADERHEIGHT - Undefined
    Unknown ASTR - Undefined

Program c:\...\projecto\ltserpfox\funcoes\faturacao\progs\faturacaopagexterno.prg has the following errors:
    Unknown UF_GERAIS_GETPARAMETER - Undefined
    Unknown UF_GERAIS_GETPARAMETER_SITE - Undefined
    Unknown FECHA - Undefined
    Unknown UF_PERGUNTALT_CHAMA - Undefined
    Unknown UF_GERAIS_ACTGRELHA - Undefined
    Unknown REGUA - Undefined
    Unknown ASTR - Undefined
    Unknown UF_GERAIS_STAMP - Undefined
    Unknown UF_PAGEXTERNO_CHAMA - Undefined
    Unknown UF_GERAIS_REGISTA_LOGS_PASSOS - Undefined

Visual Class Library c:\documentos\projecto\ltserpfox\funcoes\gerais\titlebar.vcx has the following errors:
    Unknown UF_GERAIS_MAXIMIZARJANELA - Undefined
    Unknown UF_GERAIS_COMPSTR - Undefined
    Unknown UF_GERAIS_DIMINUIRJANELA - Undefined
    Unknown UF_GERAIS_MINIMIZARJANELA - Undefined
    Unknown UF_GERAIS_FECHARJANELA - Undefined

Visual Class Library c:\documentos\projecto\ltserpfox\funcoes\gerais\menu.vcx has the following errors:
    Unknown UF_GERAIS_GETPARAMETER - Undefined
    Unknown ASTR - Undefined
    Unknown UF_STARTUP_RECOVERAPPS - Undefined
    Proc./Func. UF_STARTUP_STARTTERMINAL - Undefined
    Unknown UF_GERAIS_REDRAWOPCOES - Undefined
    Unknown GETUMVALOR - Undefined
    Unknown UF_GERAIS_KEYSTROKES - Undefined

