Program c:\documentos\projecto\ltserpfox\funcoes\marcacoes\seriesserv.prg has the following errors:
    Unknown UF_GERAIS_ACTGRELHA - Undefined
    Unknown UF_PERGUNTALT_CHAMA - Undefined
    Unknown UF_GERAIS_STAMP - Undefined
    Unknown ASTR - Undefined
    Unknown UF_GERAIS_GETMONTHTOMONTHEX - Undefined
    Unknown UF_GERAIS_GETDATE - Undefined
    Unknown UF_STOCKS_CHAMA - Undefined
    Unknown UF_PESQSTOCKS_CHAMA - Undefined
    Unknown UF_GERAIS_CHAMAREPORT - Undefined
    Unknown FECHA - Undefined
    Unknown UF_GERAIS_GETPARAMETER - Undefined
    Unknown UF_GERAIS_GETROWHEIGHT - Undefined
    Unknown UF_VALORESCOMBO_CHAMA - Undefined
    Unknown REGUA - Undefined
    Unknown UF_TECLADOALPHA_CHAMA - Undefined
    Unknown UF_UTENTES_CHAMA - Undefined

Program c:\documentos\projecto\ltserpfox\funcoes\marcacoes\planeamentomr.prg has the following errors:
    Unknown UF_GERAIS_ACTGRELHA - Undefined
    Unknown UF_PERGUNTALT_CHAMA - Undefined
    Unknown UF_GERAIS_STAMP - Undefined
    Unknown ASTR - Undefined
    Unknown UF_GERAIS_GETMONTHTOMONTHEX - Undefined
    Unknown UF_GERAIS_GETDATE - Undefined
    Unknown UF_STOCKS_CHAMA - Undefined
    Unknown UF_PESQSTOCKS_CHAMA - Undefined
    Unknown FECHA - Undefined
    Unknown UF_GERAIS_GETROWHEIGHT - Undefined
    Unknown UF_UTENTES_CHAMA - Undefined
    Unknown UF_UTILIZADORES_CHAMA - Undefined
    Unknown UF_GERAIS_VALIDAPERMUSER - Undefined

Program c:\documentos\projecto\ltserpfox\funcoes\marcacoes\pesqseriesrecursos.prg has the following errors:
    Unknown UF_GERAIS_ACTGRELHA - Undefined
    Unknown FECHA - Undefined
    Unknown UF_GERAIS_GETID - Undefined

Program c:\documentos\projecto\ltserpfox\funcoes\marcacoes\pesqseries.prg has the following errors:
    Unknown UF_GERAIS_ACTGRELHA - Undefined
    Unknown FECHA - Undefined

Program c:\documentos\projecto\ltserpfox\funcoes\marcacoes\pesqrefsagrupadas.prg has the following errors:
    Unknown UF_GERAIS_ACTGRELHA - Undefined
    Unknown UF_GERAIS_STAMP - Undefined
    Unknown FECHA - Undefined
    Unknown UF_GERAIS_GETID - Undefined
    Unknown UF_UTILIZADORES_ACTUALIZASERVDISP - Undefined
    Unknown UF_CONFIGHONORARIOS_PESQREFSAGRUPADASSEL - Undefined

Program c:\documentos\projecto\ltserpfox\funcoes\marcacoes\mrpagamento.prg has the following errors:
    Unknown UF_GERAIS_ACTGRELHA - Undefined
    Unknown UF_PERGUNTALT_CHAMA - Undefined
    Unknown UF_GERAIS_STAMP - Undefined
    Unknown FECHA - Undefined
    Unknown UF_GERAIS_GETUMVALOR - Undefined
    Unknown UF_ATENDIMENTO_GERANRATENDIMENTO - Undefined
    Unknown UF_GERAIS_VALIDAPAGCENTRALDINHEIRO - Undefined
    Unknown UF_FACTENTIDADESCLINICA_EMITIRFACTURASUTENTES - Undefined
    Unknown UF_PAGEXTERNO_CHAMA - Undefined
    Unknown UF_PAGAMENTO_REQPAGEXTERNO - Undefined

Program c:\documentos\projecto\ltserpfox\funcoes\marcacoes\marcacoes.prg has the following errors:
    Unknown UF_GERAIS_ACTGRELHA - Undefined
    Unknown UF_PERGUNTALT_CHAMA - Undefined
    Unknown UF_GERAIS_STAMP - Undefined
    Unknown UF_GERAIS_GETMONTHTOMONTHEX - Undefined
    Unknown UF_GERAIS_GETDATE - Undefined
    Unknown UF_STOCKS_CHAMA - Undefined
    Unknown FECHA - Undefined
    Unknown UF_GERAIS_GETPARAMETER - Undefined
    Unknown UF_VALORESCOMBO_CHAMA - Undefined
    Unknown UF_TECLADOALPHA_CHAMA - Undefined
    Unknown UF_GERAIS_VALIDAPERMUSER - Undefined
    Proc./Func. SERIESSERV - Undefined
    Proc./Func. PESQSERIES - Undefined
    Proc./Func. PESQSERIESRECURSOS - Undefined
    Proc./Func. MRPAGAMENTO - Undefined
    Proc./Func. PESQREFSAGRUPADAS - Undefined
    Proc./Func. PLANEAMENTOMR - Undefined
    Unknown UF_LIGACOES_ADDCONNECTION - Undefined
    Unknown UF_PESQUTENTES_SAIR - Undefined
    Unknown UF_ORIGENSDESTINOS_CHAMA - Undefined

Form c:\documentos\projecto\ltserpfox\funcoes\marcacoes\seriesserv.scx has the following errors:
    Unknown UF_GERAIS_ACTGRELHA - Undefined
    Unknown UF_PERGUNTALT_CHAMA - Undefined
    Unknown UF_GERAIS_GETMONTHTOMONTHEX - Undefined
    Unknown UF_STOCKS_CHAMA - Undefined
    Unknown FECHA - Undefined
    Unknown UF_GERAIS_GETROWHEIGHT - Undefined
    Unknown UF_VALORESCOMBO_CHAMA - Undefined
    Unknown UF_GERAIS_ATALHOS - Undefined
    Unknown UF_GERAIS_FORMBACKCOLOR - Undefined
    Unknown UF_GERAIS_SHAPEBACKCOLOR - Undefined
    Unknown UF_SERIESSERV_DISPSESSOESACTIVATE - Undefined
    Unknown UF_SERIESSERV_DISPSESSOESDEACTIVATE - Undefined
    Unknown UF_GETDATE_CHAMA - Undefined
    Unknown UF_GERAIS_GETHEADERHEIGHT - Undefined
    Unknown UF_DYTABLE_CHAMA - Undefined
    Unknown UF_STOCKS_NOVOSERVICO - Undefined
    Unknown UF_GERAIS_GETMONTHEXTOMONTH - Undefined
    Unknown UF_PESQUTENTES_CHAMA - Undefined
    Unknown UF_PESQRECURSO_CHAMA - Undefined
    Unknown UF_PESQUTILIZADORES_CHAMA - Undefined

Form c:\documentos\projecto\ltserpfox\funcoes\marcacoes\planeamentomr.scx has the following errors:
    Unknown UF_GERAIS_ACTGRELHA - Undefined
    Unknown UF_PERGUNTALT_CHAMA - Undefined
    Unknown UF_GERAIS_GETMONTHTOMONTHEX - Undefined
    Unknown UF_STOCKS_CHAMA - Undefined
    Unknown FECHA - Undefined
    Unknown UF_GERAIS_GETROWHEIGHT - Undefined
    Unknown UF_VALORESCOMBO_CHAMA - Undefined
    Unknown UF_GERAIS_ATALHOS - Undefined
    Unknown UF_GERAIS_FORMBACKCOLOR - Undefined
    Unknown UF_GERAIS_SHAPEBACKCOLOR - Undefined
    Unknown UF_GERAIS_GETHEADERHEIGHT - Undefined
    Unknown UF_DYTABLE_CHAMA - Undefined
    Unknown UF_STOCKS_NOVOSERVICO - Undefined
    Unknown UF_GERAIS_GETMONTHEXTOMONTH - Undefined
    Unknown UF_PESQUTENTES_CHAMA - Undefined
    Unknown UF_GERAIS_NAVEGAPGFRAME - Undefined
    Unknown UF_GERAIS_APLICALANGUAGE - Undefined

Form c:\documentos\projecto\ltserpfox\funcoes\marcacoes\pesqseriesrecursos.scx has the following errors:
    Unknown UF_GERAIS_GETROWHEIGHT - Undefined
    Unknown UF_VALORESCOMBO_CHAMA - Undefined
    Unknown UF_GERAIS_ATALHOS - Undefined
    Unknown UF_GERAIS_FORMBACKCOLOR - Undefined
    Unknown UF_GERAIS_SHAPEBACKCOLOR - Undefined
    Unknown UF_GERAIS_GETHEADERHEIGHT - Undefined
    File UNCHECKED_B_24.BMP - Undefined
    File CHECKED_B_24.BMP - Undefined

Form c:\documentos\projecto\ltserpfox\funcoes\marcacoes\pesqseries.scx has the following errors:
    Unknown UF_GERAIS_GETROWHEIGHT - Undefined
    Unknown UF_VALORESCOMBO_CHAMA - Undefined
    Unknown UF_GERAIS_ATALHOS - Undefined
    Unknown UF_GERAIS_FORMBACKCOLOR - Undefined
    Unknown UF_GERAIS_SHAPEBACKCOLOR - Undefined
    Unknown UF_GERAIS_GETHEADERHEIGHT - Undefined
    File UNCHECKED_B_24.BMP - Undefined
    File CHECKED_B_24.BMP - Undefined

Form c:\documentos\projecto\ltserpfox\funcoes\marcacoes\pesqrefsagrupadas.scx has the following errors:
    Unknown UF_GERAIS_ACTGRELHA - Undefined
    Unknown UF_PERGUNTALT_CHAMA - Undefined
    Unknown FECHA - Undefined
    Unknown UF_GERAIS_GETROWHEIGHT - Undefined
    Unknown UF_VALORESCOMBO_CHAMA - Undefined
    Unknown UF_GERAIS_ATALHOS - Undefined
    Unknown UF_GERAIS_FORMBACKCOLOR - Undefined
    Unknown UF_GERAIS_SHAPEBACKCOLOR - Undefined
    Unknown UF_GERAIS_GETHEADERHEIGHT - Undefined
    File UNCHECKED_B_24.BMP - Undefined
    File CHECKED_B_24.BMP - Undefined

Form c:\documentos\projecto\ltserpfox\funcoes\marcacoes\mrpagamento.scx has the following errors:
    Unknown UF_PERGUNTALT_CHAMA - Undefined
    Unknown ASTR - Undefined
    Unknown UF_GERAIS_GETROWHEIGHT - Undefined
    Unknown UF_GERAIS_GETUMVALOR - Undefined
    Unknown UF_GERAIS_ATALHOS - Undefined
    Unknown UF_GERAIS_FORMBACKCOLOR - Undefined
    Unknown UF_GERAIS_SHAPEBACKCOLOR - Undefined
    Unknown UF_GERAIS_GETHEADERHEIGHT - Undefined
    Unknown UF_ATENDIMENTO_SELOPERADOR - Undefined
    Unknown UF_TECLADONUMERICO_CHAMA - Undefined
    Unknown UF_REGVENDAS_MODOPAGEXTERNO - Undefined

Form c:\documentos\projecto\ltserpfox\funcoes\marcacoes\marcacoes.scx has the following errors:
    Unknown UF_GERAIS_ACTGRELHA - Undefined
    Unknown UF_PERGUNTALT_CHAMA - Undefined
    Unknown UF_GERAIS_GETROWHEIGHT - Undefined
    Unknown UF_VALORESCOMBO_CHAMA - Undefined
    Unknown UF_UTENTES_CHAMA - Undefined
    Unknown UF_GERAIS_VALIDAPERMUSER - Undefined
    Unknown UF_ORIGENSDESTINOS_CHAMA - Undefined
    Unknown UF_GERAIS_ATALHOS - Undefined
    Unknown UF_GERAIS_FORMBACKCOLOR - Undefined
    Unknown UF_GERAIS_SHAPEBACKCOLOR - Undefined
    Unknown UF_GETDATE_CHAMA - Undefined
    Unknown UF_GERAIS_GETHEADERHEIGHT - Undefined
    Unknown UF_DYTABLE_CHAMA - Undefined
    Unknown UF_PESQUTENTES_CHAMA - Undefined
    Unknown UF_GERAIS_NAVEGAPGFRAME - Undefined
    Unknown UF_GERAIS_APLICALANGUAGE - Undefined
    Unknown UF_PRESCRICAO_CHAMA - Undefined
    Unknown UF_GERAIS_ORDENAGRELHA - Undefined

Visual Class Library c:\documentos\projecto\ltserpfox\funcoes\gerais\class_tecladovirtual.vcx has the following errors:
    Unknown UF_GERAIS_CLICKEFFECT - Undefined
    Unknown UF_PAGAMENTO_RESETVALORESMODOPAG - Undefined
    Unknown UF_ALTERAMEIOSPAG_RESETVALORESMODOPAG - Undefined

Visual Class Library c:\documentos\projecto\ltserpfox\funcoes\gerais\disponibilidades.vcx has the following errors:
    Unknown UF_GERAIS_ACTGRELHA - Undefined
    Unknown UF_PERGUNTALT_CHAMA - Undefined
    Unknown UF_GERAIS_GETROWHEIGHT - Undefined
    Unknown UF_GERAIS_GETHEADERHEIGHT - Undefined
    Unknown UF_GERAIS_APLICALANGUAGE - Undefined

Visual Class Library c:\documentos\projecto\ltserpfox\funcoes\gerais\filtros.vcx has the following errors:
    Unknown UF_GERAIS_ACTGRELHA - Undefined
    Unknown UF_GERAIS_STAMP - Undefined
    Unknown FECHA - Undefined
    Unknown UF_GERAIS_GETROWHEIGHT - Undefined
    Unknown UF_VALORESCOMBO_CHAMA - Undefined
    Unknown UF_GERAIS_CLICKEFFECT - Undefined
    Unknown UF_ANALISES_ALTERAGRUPO - Undefined
    Unknown UF_FAMILIAS_CHAMA - Undefined
    Unknown UF_GERAIS_FILLDATACOMBOBOX - Undefined
    Unknown UF_FILTRADCI_CHAMA - Undefined
    Unknown UF_GERAIS_INSERT_TEMPFILTERS - Undefined

Visual Class Library c:\documentos\projecto\ltserpfox\funcoes\gerais\menu.vcx has the following errors:
    Unknown ASTR - Undefined
    Unknown UF_GERAIS_GETPARAMETER - Undefined
    Unknown UF_STARTUP_RECOVERAPPS - Undefined
    Proc./Func. UF_STARTUP_STARTTERMINAL - Undefined
    Unknown UF_GERAIS_REDRAWOPCOES - Undefined
    Unknown GETUMVALOR - Undefined
    Unknown UF_GERAIS_KEYSTROKES - Undefined

Visual Class Library c:\documentos\projecto\ltserpfox\funcoes\gerais\dadosuser.vcx has the following errors:
    Unknown UF_GERAIS_GETPARAMETER - Undefined
    Unknown UF_PAINELCENTRAL_MOSTRAOPCOES - Undefined

